---
source: rdf-diagram-lib/src/diagram/formats/rdf_diagram/from_diagram.rs
expression: rdf_diagram
input_file: rdf-diagram-lib/tests/rdf-diagram/nodes.drawio
snapshot_kind: text
---
RdfDiagram {
    base: Some(
        Base(
            "http://base/",
        ),
    ),
    namespaces: {
        "p": "http://prefix/",
        "": "http://prefix/empty/",
    },
    inner: HashMapGraph {
        nodes: {
            Id(
                "_c9oCKdaO3NKWQP2mJY--22",
            ): Node {
                id: Id(
                    "_c9oCKdaO3NKWQP2mJY--22",
                ),
                label: Term(
                    BlankNode(
                        Anon {
                            bnode_id: "UUID PLACEHOLDER",
                        },
                    ),
                ),
            },
            Id(
                "yXdASN2td4LcxcqNTUS5-13",
            ): Node {
                id: Id(
                    "yXdASN2td4LcxcqNTUS5-13",
                ),
                label: Term(
                    Iri(
                        IriReference {
                            iri: "s",
                        },
                    ),
                ),
            },
            Id(
                "_c9oCKdaO3NKWQP2mJY--15",
            ): Node {
                id: Id(
                    "_c9oCKdaO3NKWQP2mJY--15",
                ),
                label: Term(
                    Iri(
                        IriReference {
                            iri: "http://subject/absolute.org",
                        },
                    ),
                ),
            },
            Id(
                "_c9oCKdaO3NKWQP2mJY--27",
            ): Node {
                id: Id(
                    "_c9oCKdaO3NKWQP2mJY--27",
                ),
                label: Term(
                    Iri(
                        IriReference {
                            iri: "s",
                        },
                    ),
                ),
            },
            Id(
                "_c9oCKdaO3NKWQP2mJY--14",
            ): Node {
                id: Id(
                    "_c9oCKdaO3NKWQP2mJY--14",
                ),
                label: Term(
                    Iri(
                        PrefixedName {
                            pn_prefix: "p",
                            pn_local: "object",
                        },
                    ),
                ),
            },
            Id(
                "_c9oCKdaO3NKWQP2mJY--25",
            ): Node {
                id: Id(
                    "_c9oCKdaO3NKWQP2mJY--25",
                ),
                label: Term(
                    Literal(
                        Rdf {
                            lexical_form: "single quote string",
                            lang_tag: None,
                            datatype: None,
                        },
                    ),
                ),
            },
            Id(
                "yXdASN2td4LcxcqNTUS5-14",
            ): Node {
                id: Id(
                    "yXdASN2td4LcxcqNTUS5-14",
                ),
                label: Term(
                    Literal(
                        Numeric(
                            Double {
                                lexical_form: "1.663E-4",
                            },
                        ),
                    ),
                ),
            },
            Id(
                "_c9oCKdaO3NKWQP2mJY--24",
            ): Node {
                id: Id(
                    "_c9oCKdaO3NKWQP2mJY--24",
                ),
                label: Term(
                    BlankNode(
                        BlankNodeLabel {
                            bnode_id: "blank_node_label",
                        },
                    ),
                ),
            },
            Id(
                "yXdASN2td4LcxcqNTUS5-8",
            ): Node {
                id: Id(
                    "yXdASN2td4LcxcqNTUS5-8",
                ),
                label: Term(
                    Literal(
                        Numeric(
                            Decimal {
                                lexical_form: "4.0",
                            },
                        ),
                    ),
                ),
            },
            Id(
                "_c9oCKdaO3NKWQP2mJY--28",
            ): Node {
                id: Id(
                    "_c9oCKdaO3NKWQP2mJY--28",
                ),
                label: Term(
                    Literal(
                        Rdf {
                            lexical_form: "double quote string",
                            lang_tag: None,
                            datatype: None,
                        },
                    ),
                ),
            },
            Id(
                "yXdASN2td4LcxcqNTUS5-4",
            ): Node {
                id: Id(
                    "yXdASN2td4LcxcqNTUS5-4",
                ),
                label: Term(
                    Iri(
                        IriReference {
                            iri: "s",
                        },
                    ),
                ),
            },
            Id(
                "yXdASN2td4LcxcqNTUS5-2",
            ): Node {
                id: Id(
                    "yXdASN2td4LcxcqNTUS5-2",
                ),
                label: Term(
                    Literal(
                        Rdf {
                            lexical_form: "lang tag string",
                            lang_tag: Some(
                                "fr-be",
                            ),
                            datatype: None,
                        },
                    ),
                ),
            },
            Id(
                "_c9oCKdaO3NKWQP2mJY--31",
            ): Node {
                id: Id(
                    "_c9oCKdaO3NKWQP2mJY--31",
                ),
                label: Term(
                    Literal(
                        Rdf {
                            lexical_form: "This is a multi-line\nliteral with many quotes (\"\"\"\"\")\nand up to two sequential apostrophes ('').",
                            lang_tag: None,
                            datatype: None,
                        },
                    ),
                ),
            },
            Id(
                "yXdASN2td4LcxcqNTUS5-5",
            ): Node {
                id: Id(
                    "yXdASN2td4LcxcqNTUS5-5",
                ),
                label: Term(
                    Literal(
                        Rdf {
                            lexical_form: "datatype string",
                            lang_tag: None,
                            datatype: Some(
                                PrefixedName {
                                    pn_prefix: "p",
                                    pn_local: "datatype",
                                },
                            ),
                        },
                    ),
                ),
            },
            Id(
                "_c9oCKdaO3NKWQP2mJY--20",
            ): Node {
                id: Id(
                    "_c9oCKdaO3NKWQP2mJY--20",
                ),
                label: TurtleDoc {
                    base: Some(
                        Base(
                            "http://base/",
                        ),
                    ),
                    namespaces: {
                        "p": "http://prefix/",
                        "": "http://prefix/empty/",
                    },
                    directives: [
                        "@base <http://base/> .",
                        "BASE <http://base/sparql/>",
                        "@prefix p: <http://prefix/> .",
                        "PREFIX : <http://prefix/empty/>",
                    ],
                    triples: [],
                },
            },
            Id(
                "yXdASN2td4LcxcqNTUS5-7",
            ): Node {
                id: Id(
                    "yXdASN2td4LcxcqNTUS5-7",
                ),
                label: Term(
                    Iri(
                        IriReference {
                            iri: "s",
                        },
                    ),
                ),
            },
            Id(
                "_c9oCKdaO3NKWQP2mJY--30",
            ): Node {
                id: Id(
                    "_c9oCKdaO3NKWQP2mJY--30",
                ),
                label: Term(
                    Iri(
                        IriReference {
                            iri: "s",
                        },
                    ),
                ),
            },
            Id(
                "yXdASN2td4LcxcqNTUS5-11",
            ): Node {
                id: Id(
                    "yXdASN2td4LcxcqNTUS5-11",
                ),
                label: Term(
                    Literal(
                        Numeric(
                            Integer {
                                lexical_form: "2",
                            },
                        ),
                    ),
                ),
            },
            Id(
                "yXdASN2td4LcxcqNTUS5-16",
            ): Node {
                id: Id(
                    "yXdASN2td4LcxcqNTUS5-16",
                ),
                label: Term(
                    Iri(
                        IriReference {
                            iri: "s",
                        },
                    ),
                ),
            },
            Id(
                "yXdASN2td4LcxcqNTUS5-1",
            ): Node {
                id: Id(
                    "yXdASN2td4LcxcqNTUS5-1",
                ),
                label: Term(
                    Iri(
                        IriReference {
                            iri: "s",
                        },
                    ),
                ),
            },
            Id(
                "yXdASN2td4LcxcqNTUS5-17",
            ): Node {
                id: Id(
                    "yXdASN2td4LcxcqNTUS5-17",
                ),
                label: Term(
                    Literal(
                        Boolean {
                            lexical_form: "false",
                        },
                    ),
                ),
            },
            Id(
                "yXdASN2td4LcxcqNTUS5-10",
            ): Node {
                id: Id(
                    "yXdASN2td4LcxcqNTUS5-10",
                ),
                label: Term(
                    Iri(
                        IriReference {
                            iri: "s",
                        },
                    ),
                ),
            },
            Id(
                "_c9oCKdaO3NKWQP2mJY--16",
            ): Node {
                id: Id(
                    "_c9oCKdaO3NKWQP2mJY--16",
                ),
                label: TurtleDoc {
                    base: None,
                    namespaces: {},
                    directives: [],
                    triples: [
                        "<http://turtle/subject/absolute.org> <turtle/predicate/relative.org> p:turtle_object .",
                    ],
                },
            },
            Id(
                "_c9oCKdaO3NKWQP2mJY--21",
            ): Node {
                id: Id(
                    "_c9oCKdaO3NKWQP2mJY--21",
                ),
                label: Term(
                    BlankNode(
                        Anon {
                            bnode_id: "UUID PLACEHOLDER",
                        },
                    ),
                ),
            },
        },
        edges: {
            Id(
                "yXdASN2td4LcxcqNTUS5-18",
            ): Edge {
                id: Id(
                    "yXdASN2td4LcxcqNTUS5-18",
                ),
                label: Term(
                    Iri(
                        IriReference {
                            iri: "p",
                        },
                    ),
                ),
                source: Id(
                    "yXdASN2td4LcxcqNTUS5-16",
                ),
                target: Id(
                    "yXdASN2td4LcxcqNTUS5-17",
                ),
            },
            Id(
                "_c9oCKdaO3NKWQP2mJY--23",
            ): Edge {
                id: Id(
                    "_c9oCKdaO3NKWQP2mJY--23",
                ),
                label: Term(
                    Iri(
                        PrefixedName {
                            pn_prefix: "",
                            pn_local: "predicate",
                        },
                    ),
                ),
                source: Id(
                    "_c9oCKdaO3NKWQP2mJY--21",
                ),
                target: Id(
                    "_c9oCKdaO3NKWQP2mJY--22",
                ),
            },
            Id(
                "yXdASN2td4LcxcqNTUS5-12",
            ): Edge {
                id: Id(
                    "yXdASN2td4LcxcqNTUS5-12",
                ),
                label: Term(
                    Iri(
                        IriReference {
                            iri: "p",
                        },
                    ),
                ),
                source: Id(
                    "yXdASN2td4LcxcqNTUS5-10",
                ),
                target: Id(
                    "yXdASN2td4LcxcqNTUS5-11",
                ),
            },
            Id(
                "_c9oCKdaO3NKWQP2mJY--32",
            ): Edge {
                id: Id(
                    "_c9oCKdaO3NKWQP2mJY--32",
                ),
                label: Term(
                    Iri(
                        IriReference {
                            iri: "p",
                        },
                    ),
                ),
                source: Id(
                    "_c9oCKdaO3NKWQP2mJY--30",
                ),
                target: Id(
                    "_c9oCKdaO3NKWQP2mJY--31",
                ),
            },
            Id(
                "yXdASN2td4LcxcqNTUS5-3",
            ): Edge {
                id: Id(
                    "yXdASN2td4LcxcqNTUS5-3",
                ),
                label: Term(
                    Iri(
                        IriReference {
                            iri: "p",
                        },
                    ),
                ),
                source: Id(
                    "yXdASN2td4LcxcqNTUS5-1",
                ),
                target: Id(
                    "yXdASN2td4LcxcqNTUS5-2",
                ),
            },
            Id(
                "_c9oCKdaO3NKWQP2mJY--29",
            ): Edge {
                id: Id(
                    "_c9oCKdaO3NKWQP2mJY--29",
                ),
                label: Term(
                    Iri(
                        IriReference {
                            iri: "p",
                        },
                    ),
                ),
                source: Id(
                    "_c9oCKdaO3NKWQP2mJY--27",
                ),
                target: Id(
                    "_c9oCKdaO3NKWQP2mJY--28",
                ),
            },
            Id(
                "_c9oCKdaO3NKWQP2mJY--13",
            ): Edge {
                id: Id(
                    "_c9oCKdaO3NKWQP2mJY--13",
                ),
                label: Term(
                    Iri(
                        IriReference {
                            iri: "http://www.w3.org/1999/02/22-rdf-syntax-ns#type",
                        },
                    ),
                ),
                source: Id(
                    "_c9oCKdaO3NKWQP2mJY--15",
                ),
                target: Id(
                    "_c9oCKdaO3NKWQP2mJY--14",
                ),
            },
            Id(
                "yXdASN2td4LcxcqNTUS5-6",
            ): Edge {
                id: Id(
                    "yXdASN2td4LcxcqNTUS5-6",
                ),
                label: Term(
                    Iri(
                        IriReference {
                            iri: "p",
                        },
                    ),
                ),
                source: Id(
                    "yXdASN2td4LcxcqNTUS5-4",
                ),
                target: Id(
                    "yXdASN2td4LcxcqNTUS5-5",
                ),
            },
            Id(
                "yXdASN2td4LcxcqNTUS5-9",
            ): Edge {
                id: Id(
                    "yXdASN2td4LcxcqNTUS5-9",
                ),
                label: Term(
                    Iri(
                        IriReference {
                            iri: "p",
                        },
                    ),
                ),
                source: Id(
                    "yXdASN2td4LcxcqNTUS5-7",
                ),
                target: Id(
                    "yXdASN2td4LcxcqNTUS5-8",
                ),
            },
            Id(
                "yXdASN2td4LcxcqNTUS5-15",
            ): Edge {
                id: Id(
                    "yXdASN2td4LcxcqNTUS5-15",
                ),
                label: Term(
                    Iri(
                        IriReference {
                            iri: "p",
                        },
                    ),
                ),
                source: Id(
                    "yXdASN2td4LcxcqNTUS5-13",
                ),
                target: Id(
                    "yXdASN2td4LcxcqNTUS5-14",
                ),
            },
            Id(
                "_c9oCKdaO3NKWQP2mJY--26",
            ): Edge {
                id: Id(
                    "_c9oCKdaO3NKWQP2mJY--26",
                ),
                label: Term(
                    Iri(
                        IriReference {
                            iri: "predicate/relative.org",
                        },
                    ),
                ),
                source: Id(
                    "_c9oCKdaO3NKWQP2mJY--24",
                ),
                target: Id(
                    "_c9oCKdaO3NKWQP2mJY--25",
                ),
            },
        },
    },
}
