---
source: rdf-diagram-lib/src/formats/drawio/drawio.rs
expression: diagram
input_file: rdf-diagram-lib/tests/completion/completion.drawio
---
<mxfile host="Electron" modified="DATE PLACEHOLDER" agent="Mozilla/5.0 (X11; Linux x86_64) AppleWebKit/537.36 (KHTML, like Gecko) draw.io/23.0.2 Chrome/120.0.6099.109 Electron/28.1.0 Safari/537.36" version="23.0.2" etag="ETAG PLACEHOLDER">
    <diagram>
        <mxGraphModel>
            <root>
                <mxCell id="0"/>
                <mxCell id="1" parent="0"/>
                <UserObject id="element-1" label="&amp;lt;subject&amp;gt;">
                    <mxCell style="swimlane;collapsible=1;childLayout=stackLayout;swimlaneFillColor=default;resizeParent=1;resizeLast=0;resizeParentMax=0;marginBottom=10;marginTop=10;marginRight=10;marginLeft=10;spacingLeft=5;spacingRight=5;fontStyle=0;startSize=30;points=[];html=1;shadow=1;perimeterSpacing=3;spacingLeft=10;spacingRight=10;allowArrows=1;rotatable=0;overflow=hidden;whiteSpace=wrap;fontSize=14;horizontal=1;horizontalStack=0;" parent="1" vertex="1">
                        <mxGeometry x="0" y="120" width="200" height="80" as="geometry"/>
                    </mxCell>
                </UserObject>
                <UserObject id="element-2" label="&amp;lt;predicate&amp;gt; &amp;lt;object&amp;gt;">
                    <mxCell style="points=[];html=1;shadow=1;perimeterSpacing=3;spacingLeft=10;spacingRight=10;allowArrows=1;rotatable=0;overflow=hidden;whiteSpace=wrap;fontSize=14;" parent="element-1" vertex="1">
                        <mxGeometry x="10" y="40" width="180" height="30" as="geometry"/>
                    </mxCell>
                </UserObject>
                <UserObject id="Eovfj6-UvopBQGiKRTza-1" label="@base &amp;lt;http://base.org#&amp;gt; .&lt;br&gt;@prefix prefix_unused: &amp;lt;http://prefix_unused#&amp;gt; .&lt;br&gt;@prefix prefix_used: &amp;lt;http://prefix_used#&amp;gt; .">
                    <mxCell style="points=[];html=1;shadow=1;perimeterSpacing=3;spacingLeft=10;spacingRight=10;allowArrows=1;rotatable=0;overflow=hidden;whiteSpace=wrap;fontSize=14;" parent="1" vertex="1">
                        <mxGeometry x="0" y="0" width="360" height="80" as="geometry"/>
                    </mxCell>
                </UserObject>
                <UserObject id="6yYEQw6Bb_c7SArNSuRW-1" label="&amp;lt;subject&amp;gt;">
                    <mxCell style="swimlane;collapsible=1;childLayout=stackLayout;swimlaneFillColor=default;resizeParent=1;resizeLast=0;resizeParentMax=0;marginBottom=10;marginTop=10;marginRight=10;marginLeft=10;spacingLeft=5;spacingRight=5;fontStyle=0;startSize=30;points=[];html=1;shadow=1;perimeterSpacing=3;spacingLeft=10;spacingRight=10;allowArrows=1;rotatable=0;overflow=hidden;whiteSpace=wrap;fontSize=14;horizontal=0;horizontalStack=0;" parent="1" vertex="1">
                        <mxGeometry x="0" y="240" width="280" height="160" as="geometry"/>
                    </mxCell>
                </UserObject>
                <UserObject id="6yYEQw6Bb_c7SArNSuRW-2" label="&amp;lt;predicate&amp;gt;">
                    <mxCell style="swimlane;collapsible=1;childLayout=stackLayout;swimlaneFillColor=default;resizeParent=1;resizeLast=0;resizeParentMax=0;marginBottom=10;marginTop=10;marginRight=10;marginLeft=10;spacingLeft=5;spacingRight=5;fontStyle=0;startSize=30;points=[];html=1;shadow=1;perimeterSpacing=3;spacingLeft=10;spacingRight=10;allowArrows=1;rotatable=0;overflow=hidden;whiteSpace=wrap;fontSize=14;horizontal=1;horizontalStack=0;" parent="6yYEQw6Bb_c7SArNSuRW-1" vertex="1">
                        <mxGeometry x="40" y="10" width="230" height="140" as="geometry"/>
                    </mxCell>
                </UserObject>
                <UserObject id="6yYEQw6Bb_c7SArNSuRW-3" label="prefix_used:object">
                    <mxCell style="points=[];html=1;shadow=1;perimeterSpacing=3;spacingLeft=10;spacingRight=10;allowArrows=1;rotatable=0;overflow=hidden;whiteSpace=wrap;fontSize=14;" parent="6yYEQw6Bb_c7SArNSuRW-2" vertex="1">
                        <mxGeometry x="10" y="40" width="210" height="30" as="geometry"/>
                    </mxCell>
                </UserObject>
                <UserObject id="Vpt6gYo4Yl0W2Edg2eL2-1" label="&amp;lt;http://prefix_unkown#object&amp;gt;">
                    <mxCell style="points=[];html=1;shadow=1;perimeterSpacing=3;spacingLeft=10;spacingRight=10;allowArrows=1;rotatable=0;overflow=hidden;whiteSpace=wrap;fontSize=14;" parent="6yYEQw6Bb_c7SArNSuRW-2" vertex="1">
                        <mxGeometry x="10" y="70" width="210" height="30" as="geometry"/>
                    </mxCell>
                </UserObject>
                <UserObject id="6yYEQw6Bb_c7SArNSuRW-6" label="&amp;quot;String&amp;quot;">
                    <mxCell style="points=[];html=1;shadow=1;perimeterSpacing=3;spacingLeft=10;spacingRight=10;allowArrows=1;rotatable=0;overflow=hidden;whiteSpace=wrap;fontSize=14;" parent="6yYEQw6Bb_c7SArNSuRW-2" vertex="1">
                        <mxGeometry x="10" y="100" width="210" height="30" as="geometry"/>
                    </mxCell>
                </UserObject>
            </root>
        </mxGraphModel>
    </diagram>
</mxfile>
