---
source: rdf-diagram-lib/src/formats/drawio/drawio.rs
expression: diagram
input_file: rdf-diagram-lib/tests/rdf-diagram/nodes.drawio
---
<mxfile host="Electron" modified="DATE PLACEHOLDER" agent="Mozilla/5.0 (X11; Linux x86_64) AppleWebKit/537.36 (KHTML, like Gecko) draw.io/23.0.2 Chrome/120.0.6099.109 Electron/28.1.0 Safari/537.36" version="23.0.2" etag="ETAG PLACEHOLDER">
    <diagram>
        <mxGraphModel>
            <root>
                <mxCell id="0"/>
                <mxCell id="1" parent="0"/>
                <UserObject id="_c9oCKdaO3NKWQP2mJY--22">
                    <mxCell style="points=[];html=1;shadow=1;perimeterSpacing=3;spacingLeft=10;spacingRight=10;allowArrows=1;rotatable=0;overflow=hidden;whiteSpace=wrap;fontSize=14;" parent="1" vertex="1">
                        <mxGeometry x="440" y="200" width="160" height="30" as="geometry"/>
                    </mxCell>
                </UserObject>
                <UserObject id="yXdASN2td4LcxcqNTUS5-13" label="&amp;lt;s&amp;gt;">
                    <mxCell style="points=[];html=1;shadow=1;perimeterSpacing=3;spacingLeft=10;spacingRight=10;allowArrows=1;rotatable=0;overflow=hidden;whiteSpace=wrap;fontSize=14;" parent="1" vertex="1">
                        <mxGeometry x="40" y="550" width="200" height="30" as="geometry"/>
                    </mxCell>
                </UserObject>
                <UserObject id="_c9oCKdaO3NKWQP2mJY--15" label="&amp;lt;http://subject/absolute.org&amp;gt;">
                    <mxCell style="points=[];html=1;shadow=1;perimeterSpacing=3;spacingLeft=10;spacingRight=10;allowArrows=1;rotatable=0;overflow=hidden;whiteSpace=wrap;fontSize=14;" parent="1" vertex="1">
                        <mxGeometry x="40" y="160" width="200" height="30" as="geometry"/>
                    </mxCell>
                </UserObject>
                <UserObject id="_c9oCKdaO3NKWQP2mJY--27" label="&amp;lt;s&amp;gt;">
                    <mxCell style="points=[];html=1;shadow=1;perimeterSpacing=3;spacingLeft=10;spacingRight=10;allowArrows=1;rotatable=0;overflow=hidden;whiteSpace=wrap;fontSize=14;" parent="1" vertex="1">
                        <mxGeometry x="40" y="280" width="200" height="30" as="geometry"/>
                    </mxCell>
                </UserObject>
                <UserObject id="_c9oCKdaO3NKWQP2mJY--14" label="p:object">
                    <mxCell style="points=[];html=1;shadow=1;perimeterSpacing=3;spacingLeft=10;spacingRight=10;allowArrows=1;rotatable=0;overflow=hidden;whiteSpace=wrap;fontSize=14;" parent="1" vertex="1">
                        <mxGeometry x="440" y="160" width="160" height="30" as="geometry"/>
                    </mxCell>
                </UserObject>
                <UserObject id="_c9oCKdaO3NKWQP2mJY--25" label="&amp;apos;single quote string&amp;apos;">
                    <mxCell style="points=[];html=1;shadow=1;perimeterSpacing=3;spacingLeft=10;spacingRight=10;allowArrows=1;rotatable=0;overflow=hidden;whiteSpace=wrap;fontSize=14;" parent="1" vertex="1">
                        <mxGeometry x="440" y="240" width="160" height="30" as="geometry"/>
                    </mxCell>
                </UserObject>
                <UserObject id="yXdASN2td4LcxcqNTUS5-14" label="1.663E-4">
                    <mxCell style="points=[];html=1;shadow=1;perimeterSpacing=3;spacingLeft=10;spacingRight=10;allowArrows=1;rotatable=0;overflow=hidden;whiteSpace=wrap;fontSize=14;" parent="1" vertex="1">
                        <mxGeometry x="440" y="550" width="200" height="30" as="geometry"/>
                    </mxCell>
                </UserObject>
                <UserObject id="_c9oCKdaO3NKWQP2mJY--24" label="_:blank_node_label">
                    <mxCell style="points=[];html=1;shadow=1;perimeterSpacing=3;spacingLeft=10;spacingRight=10;allowArrows=1;rotatable=0;overflow=hidden;whiteSpace=wrap;fontSize=14;" parent="1" vertex="1">
                        <mxGeometry x="40" y="240" width="200" height="30" as="geometry"/>
                    </mxCell>
                </UserObject>
                <UserObject id="yXdASN2td4LcxcqNTUS5-8" label="4.0">
                    <mxCell style="points=[];html=1;shadow=1;perimeterSpacing=3;spacingLeft=10;spacingRight=10;allowArrows=1;rotatable=0;overflow=hidden;whiteSpace=wrap;fontSize=14;" parent="1" vertex="1">
                        <mxGeometry x="440" y="470" width="200" height="30" as="geometry"/>
                    </mxCell>
                </UserObject>
                <UserObject id="_c9oCKdaO3NKWQP2mJY--28" label="&amp;quot;double quote string&amp;quot;">
                    <mxCell style="points=[];html=1;shadow=1;perimeterSpacing=3;spacingLeft=10;spacingRight=10;allowArrows=1;rotatable=0;overflow=hidden;whiteSpace=wrap;fontSize=14;" parent="1" vertex="1">
                        <mxGeometry x="440" y="280" width="160" height="30" as="geometry"/>
                    </mxCell>
                </UserObject>
                <UserObject id="yXdASN2td4LcxcqNTUS5-4" label="&amp;lt;s&amp;gt;">
                    <mxCell style="points=[];html=1;shadow=1;perimeterSpacing=3;spacingLeft=10;spacingRight=10;allowArrows=1;rotatable=0;overflow=hidden;whiteSpace=wrap;fontSize=14;" parent="1" vertex="1">
                        <mxGeometry x="40" y="430" width="200" height="30" as="geometry"/>
                    </mxCell>
                </UserObject>
                <UserObject id="yXdASN2td4LcxcqNTUS5-2" label="&amp;apos;lang tag string&amp;apos;@fr-be">
                    <mxCell style="points=[];html=1;shadow=1;perimeterSpacing=3;spacingLeft=10;spacingRight=10;allowArrows=1;rotatable=0;overflow=hidden;whiteSpace=wrap;fontSize=14;" parent="1" vertex="1">
                        <mxGeometry x="440" y="390" width="200" height="30" as="geometry"/>
                    </mxCell>
                </UserObject>
                <UserObject id="_c9oCKdaO3NKWQP2mJY--31" label="&amp;apos;&amp;apos;&amp;apos;This is a multi-line&lt;br&gt;literal with many quotes (&amp;quot;&amp;quot;&amp;quot;&amp;quot;&amp;quot;)&lt;br&gt;and up to two sequential apostrophes (&amp;apos;&amp;apos;).&amp;apos;&amp;apos;&amp;apos;">
                    <mxCell style="points=[];html=1;shadow=1;perimeterSpacing=3;spacingLeft=10;spacingRight=10;allowArrows=1;rotatable=0;overflow=hidden;whiteSpace=wrap;fontSize=14;" parent="1" vertex="1">
                        <mxGeometry x="440" y="320" width="360" height="60" as="geometry"/>
                    </mxCell>
                </UserObject>
                <UserObject id="yXdASN2td4LcxcqNTUS5-5" label="&amp;apos;datatype string&amp;apos;^^p:datatype">
                    <mxCell style="points=[];html=1;shadow=1;perimeterSpacing=3;spacingLeft=10;spacingRight=10;allowArrows=1;rotatable=0;overflow=hidden;whiteSpace=wrap;fontSize=14;" parent="1" vertex="1">
                        <mxGeometry x="440" y="430" width="200" height="30" as="geometry"/>
                    </mxCell>
                </UserObject>
                <UserObject id="_c9oCKdaO3NKWQP2mJY--20" label="@base &amp;lt;http://base/&amp;gt; .&lt;br&gt;BASE &amp;lt;http://base/sparql/&amp;gt;&lt;br&gt;&lt;br&gt;@prefix p: &amp;lt;http://prefix/&amp;gt; .&lt;br&gt;PREFIX : &amp;lt;http://prefix/empty/&amp;gt;">
                    <mxCell style="points=[];html=1;shadow=1;perimeterSpacing=3;spacingLeft=10;spacingRight=10;allowArrows=1;rotatable=0;overflow=hidden;whiteSpace=wrap;fontSize=14;" parent="1" vertex="1">
                        <mxGeometry x="40" y="0" width="200" height="100" as="geometry"/>
                    </mxCell>
                </UserObject>
                <UserObject id="yXdASN2td4LcxcqNTUS5-7" label="&amp;lt;s&amp;gt;">
                    <mxCell style="points=[];html=1;shadow=1;perimeterSpacing=3;spacingLeft=10;spacingRight=10;allowArrows=1;rotatable=0;overflow=hidden;whiteSpace=wrap;fontSize=14;" parent="1" vertex="1">
                        <mxGeometry x="40" y="470" width="200" height="30" as="geometry"/>
                    </mxCell>
                </UserObject>
                <UserObject id="_c9oCKdaO3NKWQP2mJY--30" label="&amp;lt;s&amp;gt;">
                    <mxCell style="points=[];html=1;shadow=1;perimeterSpacing=3;spacingLeft=10;spacingRight=10;allowArrows=1;rotatable=0;overflow=hidden;whiteSpace=wrap;fontSize=14;" parent="1" vertex="1">
                        <mxGeometry x="40" y="335" width="200" height="30" as="geometry"/>
                    </mxCell>
                </UserObject>
                <UserObject id="yXdASN2td4LcxcqNTUS5-11" label="2">
                    <mxCell style="points=[];html=1;shadow=1;perimeterSpacing=3;spacingLeft=10;spacingRight=10;allowArrows=1;rotatable=0;overflow=hidden;whiteSpace=wrap;fontSize=14;" parent="1" vertex="1">
                        <mxGeometry x="440" y="510" width="200" height="30" as="geometry"/>
                    </mxCell>
                </UserObject>
                <UserObject id="yXdASN2td4LcxcqNTUS5-16" label="&amp;lt;s&amp;gt;">
                    <mxCell style="points=[];html=1;shadow=1;perimeterSpacing=3;spacingLeft=10;spacingRight=10;allowArrows=1;rotatable=0;overflow=hidden;whiteSpace=wrap;fontSize=14;" parent="1" vertex="1">
                        <mxGeometry x="40" y="590" width="200" height="30" as="geometry"/>
                    </mxCell>
                </UserObject>
                <UserObject id="yXdASN2td4LcxcqNTUS5-1" label="&amp;lt;s&amp;gt;">
                    <mxCell style="points=[];html=1;shadow=1;perimeterSpacing=3;spacingLeft=10;spacingRight=10;allowArrows=1;rotatable=0;overflow=hidden;whiteSpace=wrap;fontSize=14;" parent="1" vertex="1">
                        <mxGeometry x="40" y="390" width="200" height="30" as="geometry"/>
                    </mxCell>
                </UserObject>
                <UserObject id="yXdASN2td4LcxcqNTUS5-17" label="false">
                    <mxCell style="points=[];html=1;shadow=1;perimeterSpacing=3;spacingLeft=10;spacingRight=10;allowArrows=1;rotatable=0;overflow=hidden;whiteSpace=wrap;fontSize=14;" parent="1" vertex="1">
                        <mxGeometry x="440" y="590" width="200" height="30" as="geometry"/>
                    </mxCell>
                </UserObject>
                <UserObject id="yXdASN2td4LcxcqNTUS5-10" label="&amp;lt;s&amp;gt;">
                    <mxCell style="points=[];html=1;shadow=1;perimeterSpacing=3;spacingLeft=10;spacingRight=10;allowArrows=1;rotatable=0;overflow=hidden;whiteSpace=wrap;fontSize=14;" parent="1" vertex="1">
                        <mxGeometry x="40" y="510" width="200" height="30" as="geometry"/>
                    </mxCell>
                </UserObject>
                <UserObject id="_c9oCKdaO3NKWQP2mJY--16" label="&amp;lt;http://turtle/subject/absolute.org&amp;gt; &amp;lt;turtle/predicate/relative.org&amp;gt; p:turtle_object .">
                    <mxCell style="points=[];html=1;shadow=1;perimeterSpacing=3;spacingLeft=10;spacingRight=10;allowArrows=1;rotatable=0;overflow=hidden;whiteSpace=wrap;fontSize=14;" parent="1" vertex="1">
                        <mxGeometry x="40" y="120" width="560" height="30" as="geometry"/>
                    </mxCell>
                </UserObject>
                <UserObject id="_c9oCKdaO3NKWQP2mJY--21" label="[]">
                    <mxCell style="points=[];html=1;shadow=1;perimeterSpacing=3;spacingLeft=10;spacingRight=10;allowArrows=1;rotatable=0;overflow=hidden;whiteSpace=wrap;fontSize=14;" parent="1" vertex="1">
                        <mxGeometry x="40" y="200" width="200" height="30" as="geometry"/>
                    </mxCell>
                </UserObject>
                <UserObject id="yXdASN2td4LcxcqNTUS5-18" label="&amp;lt;p&amp;gt;">
                    <mxCell style="html=1;edgeStyle=elbowEdgeStyle;rounded=0;orthogonalLoop=1;jettySize=auto;endArrow=block;endFill=1;endSize=5;spacingBottom=20;shadow=1;fontSize=14;" parent="1" source="yXdASN2td4LcxcqNTUS5-16" target="yXdASN2td4LcxcqNTUS5-17" edge="1">
                        <mxGeometry as="geometry" relative="1"/>
                    </mxCell>
                </UserObject>
                <UserObject id="_c9oCKdaO3NKWQP2mJY--23" label=":predicate">
                    <mxCell style="html=1;edgeStyle=elbowEdgeStyle;rounded=0;orthogonalLoop=1;jettySize=auto;endArrow=block;endFill=1;endSize=5;spacingBottom=20;shadow=1;fontSize=14;" parent="1" source="_c9oCKdaO3NKWQP2mJY--21" target="_c9oCKdaO3NKWQP2mJY--22" edge="1">
                        <mxGeometry as="geometry" relative="1"/>
                    </mxCell>
                </UserObject>
                <UserObject id="yXdASN2td4LcxcqNTUS5-12" label="&amp;lt;p&amp;gt;">
                    <mxCell style="html=1;edgeStyle=elbowEdgeStyle;rounded=0;orthogonalLoop=1;jettySize=auto;endArrow=block;endFill=1;endSize=5;spacingBottom=20;shadow=1;fontSize=14;" parent="1" source="yXdASN2td4LcxcqNTUS5-10" target="yXdASN2td4LcxcqNTUS5-11" edge="1">
                        <mxGeometry as="geometry" relative="1"/>
                    </mxCell>
                </UserObject>
                <UserObject id="_c9oCKdaO3NKWQP2mJY--32" label="&amp;lt;p&amp;gt;">
                    <mxCell style="html=1;edgeStyle=elbowEdgeStyle;rounded=0;orthogonalLoop=1;jettySize=auto;endArrow=block;endFill=1;endSize=5;spacingBottom=20;shadow=1;fontSize=14;" parent="1" source="_c9oCKdaO3NKWQP2mJY--30" target="_c9oCKdaO3NKWQP2mJY--31" edge="1">
                        <mxGeometry as="geometry" relative="1"/>
                    </mxCell>
                </UserObject>
                <UserObject id="yXdASN2td4LcxcqNTUS5-3" label="&amp;lt;p&amp;gt;">
                    <mxCell style="html=1;edgeStyle=elbowEdgeStyle;rounded=0;orthogonalLoop=1;jettySize=auto;endArrow=block;endFill=1;endSize=5;spacingBottom=20;shadow=1;fontSize=14;" parent="1" source="yXdASN2td4LcxcqNTUS5-1" target="yXdASN2td4LcxcqNTUS5-2" edge="1">
                        <mxGeometry as="geometry" relative="1"/>
                    </mxCell>
                </UserObject>
                <UserObject id="_c9oCKdaO3NKWQP2mJY--29" label="&amp;lt;p&amp;gt;">
                    <mxCell style="html=1;edgeStyle=elbowEdgeStyle;rounded=0;orthogonalLoop=1;jettySize=auto;endArrow=block;endFill=1;endSize=5;spacingBottom=20;shadow=1;fontSize=14;" parent="1" source="_c9oCKdaO3NKWQP2mJY--27" target="_c9oCKdaO3NKWQP2mJY--28" edge="1">
                        <mxGeometry as="geometry" relative="1"/>
                    </mxCell>
                </UserObject>
                <UserObject id="_c9oCKdaO3NKWQP2mJY--13" label="a">
                    <mxCell style="html=1;edgeStyle=elbowEdgeStyle;rounded=0;orthogonalLoop=1;jettySize=auto;endArrow=block;endFill=1;endSize=5;spacingBottom=20;shadow=1;fontSize=14;" parent="1" source="_c9oCKdaO3NKWQP2mJY--15" target="_c9oCKdaO3NKWQP2mJY--14" edge="1">
                        <mxGeometry as="geometry" relative="1"/>
                    </mxCell>
                </UserObject>
                <UserObject id="yXdASN2td4LcxcqNTUS5-6" label="&amp;lt;p&amp;gt;">
                    <mxCell style="html=1;edgeStyle=elbowEdgeStyle;rounded=0;orthogonalLoop=1;jettySize=auto;endArrow=block;endFill=1;endSize=5;spacingBottom=20;shadow=1;fontSize=14;" parent="1" source="yXdASN2td4LcxcqNTUS5-4" target="yXdASN2td4LcxcqNTUS5-5" edge="1">
                        <mxGeometry as="geometry" relative="1"/>
                    </mxCell>
                </UserObject>
                <UserObject id="yXdASN2td4LcxcqNTUS5-9" label="&amp;lt;p&amp;gt;">
                    <mxCell style="html=1;edgeStyle=elbowEdgeStyle;rounded=0;orthogonalLoop=1;jettySize=auto;endArrow=block;endFill=1;endSize=5;spacingBottom=20;shadow=1;fontSize=14;" parent="1" source="yXdASN2td4LcxcqNTUS5-7" target="yXdASN2td4LcxcqNTUS5-8" edge="1">
                        <mxGeometry as="geometry" relative="1"/>
                    </mxCell>
                </UserObject>
                <UserObject id="yXdASN2td4LcxcqNTUS5-15" label="&amp;lt;p&amp;gt;">
                    <mxCell style="html=1;edgeStyle=elbowEdgeStyle;rounded=0;orthogonalLoop=1;jettySize=auto;endArrow=block;endFill=1;endSize=5;spacingBottom=20;shadow=1;fontSize=14;" parent="1" source="yXdASN2td4LcxcqNTUS5-13" target="yXdASN2td4LcxcqNTUS5-14" edge="1">
                        <mxGeometry as="geometry" relative="1"/>
                    </mxCell>
                </UserObject>
                <UserObject id="_c9oCKdaO3NKWQP2mJY--26" label="&amp;lt;predicate/relative.org&amp;gt;">
                    <mxCell style="html=1;edgeStyle=elbowEdgeStyle;rounded=0;orthogonalLoop=1;jettySize=auto;endArrow=block;endFill=1;endSize=5;spacingBottom=20;shadow=1;fontSize=14;" parent="1" source="_c9oCKdaO3NKWQP2mJY--24" target="_c9oCKdaO3NKWQP2mJY--25" edge="1">
                        <mxGeometry as="geometry" relative="1"/>
                    </mxCell>
                </UserObject>
            </root>
        </mxGraphModel>
    </diagram>
</mxfile>
