---
source: rdf-diagram-lib/src/formats/drawio/drawio.rs
expression: diagram
input_file: rdf-diagram-lib/tests/diagram/anon-container.drawio
---
<mxfile host="Electron" modified="DATE PLACEHOLDER" agent="Mozilla/5.0 (X11; Linux x86_64) AppleWebKit/537.36 (KHTML, like Gecko) draw.io/23.0.2 Chrome/120.0.6099.109 Electron/28.1.0 Safari/537.36" version="23.0.2" etag="ETAG PLACEHOLDER">
    <diagram>
        <mxGraphModel>
            <root>
                <mxCell id="0"/>
                <mxCell id="1" parent="0"/>
                <UserObject id="element-1">
                    <mxCell style="swimlane;collapsible=1;childLayout=stackLayout;swimlaneFillColor=default;resizeParent=1;resizeLast=0;resizeParentMax=0;marginBottom=10;marginTop=10;marginRight=10;marginLeft=10;spacingLeft=5;spacingRight=5;fontStyle=0;startSize=0;points=[];html=1;shadow=1;perimeterSpacing=3;spacingLeft=10;spacingRight=10;allowArrows=1;rotatable=0;overflow=hidden;whiteSpace=wrap;fontSize=14;horizontalStack=0;" parent="1" vertex="1">
                        <mxGeometry x="0" y="0" width="120" height="110" as="geometry"/>
                    </mxCell>
                </UserObject>
                <UserObject id="element-2" label="Node">
                    <mxCell style="points=[];html=1;shadow=1;perimeterSpacing=3;spacingLeft=10;spacingRight=10;allowArrows=1;rotatable=0;overflow=hidden;whiteSpace=wrap;fontSize=14;" parent="element-1" vertex="1">
                        <mxGeometry x="10" y="10" width="100" height="30" as="geometry"/>
                    </mxCell>
                </UserObject>
                <UserObject id="element-3" label="Node">
                    <mxCell style="points=[];html=1;shadow=1;perimeterSpacing=3;spacingLeft=10;spacingRight=10;allowArrows=1;rotatable=0;overflow=hidden;whiteSpace=wrap;fontSize=14;" parent="element-1" vertex="1">
                        <mxGeometry x="10" y="40" width="100" height="30" as="geometry"/>
                    </mxCell>
                </UserObject>
                <UserObject id="element-4" label="Node">
                    <mxCell style="points=[];html=1;shadow=1;perimeterSpacing=3;spacingLeft=10;spacingRight=10;allowArrows=1;rotatable=0;overflow=hidden;whiteSpace=wrap;fontSize=14;" parent="element-1" vertex="1">
                        <mxGeometry x="10" y="70" width="100" height="30" as="geometry"/>
                    </mxCell>
                </UserObject>
            </root>
        </mxGraphModel>
    </diagram>
</mxfile>
