<mxfile host="Electron" modified="2024-11-20T18:04:57.129Z" agent="Mozilla/5.0 (X11; Linux x86_64) AppleWebKit/537.36 (KHTML, like Gecko) draw.io/23.0.2 Chrome/120.0.6099.109 Electron/28.1.0 Safari/537.36" version="23.0.2" etag="3712622497532210298">
    <diagram>
        <mxGraphModel>
            <root>
                <mxCell id="0"/>
                <mxCell id="1" parent="0"/>
                <UserObject id="element-1" label="&amp;lt;subject&amp;gt;">
                    <mxCell style="swimlane;collapsible=1;childLayout=stackLayout;swimlaneFillColor=default;resizeParent=1;resizeLast=0;resizeParentMax=0;marginBottom=10;marginTop=10;marginRight=10;marginLeft=10;spacingLeft=5;spacingRight=5;fontStyle=0;startSize=30;points=[];html=1;shadow=1;perimeterSpacing=3;spacingLeft=10;spacingRight=10;allowArrows=1;rotatable=0;overflow=hidden;whiteSpace=wrap;fontSize=14;horizontal=1;horizontalStack=0;" parent="1" vertex="1">
                        <mxGeometry y="50" width="180" height="160" as="geometry"/>
                    </mxCell>
                </UserObject>
                <UserObject id="element-2" label="&amp;lt;predicate&amp;gt;">
                    <mxCell style="swimlane;collapsible=1;childLayout=stackLayout;swimlaneFillColor=default;resizeParent=1;resizeLast=0;resizeParentMax=0;marginBottom=10;marginTop=10;marginRight=10;marginLeft=10;spacingLeft=5;spacingRight=5;fontStyle=0;startSize=30;points=[];html=1;shadow=1;perimeterSpacing=3;spacingLeft=10;spacingRight=10;allowArrows=1;rotatable=0;overflow=hidden;whiteSpace=wrap;fontSize=14;horizontal=0;horizontalStack=0;" parent="element-1" vertex="1">
                        <mxGeometry x="10" y="40" width="160" height="110" as="geometry"/>
                    </mxCell>
                </UserObject>
                <UserObject id="element-3a" label="&amp;lt;object_a&amp;gt;">
                    <mxCell style="points=[];html=1;shadow=1;perimeterSpacing=3;spacingLeft=10;spacingRight=10;allowArrows=1;rotatable=0;overflow=hidden;whiteSpace=wrap;fontSize=14;" parent="element-2" vertex="1">
                        <mxGeometry x="40" y="10" width="110" height="30" as="geometry"/>
                    </mxCell>
                </UserObject>
                <UserObject id="element-3b" label="&amp;lt;object_b&amp;gt;">
                    <mxCell style="points=[];html=1;shadow=1;perimeterSpacing=3;spacingLeft=10;spacingRight=10;allowArrows=1;rotatable=0;overflow=hidden;whiteSpace=wrap;fontSize=14;" parent="element-2" vertex="1">
                        <mxGeometry x="40" y="40" width="110" height="30" as="geometry"/>
                    </mxCell>
                </UserObject>
                <UserObject id="element-3c" label="&amp;lt;object_c&amp;gt;">
                    <mxCell style="points=[];html=1;shadow=1;perimeterSpacing=3;spacingLeft=10;spacingRight=10;allowArrows=1;rotatable=0;overflow=hidden;whiteSpace=wrap;fontSize=14;" parent="element-2" vertex="1">
                        <mxGeometry x="40" y="70" width="110" height="30" as="geometry"/>
                    </mxCell>
                </UserObject>
                <UserObject id="8WvtGYaWG3kpqOKbgBmZ-1" label="@base &amp;lt;http://base.org#&amp;gt; .">
                    <mxCell style="points=[];html=1;shadow=1;perimeterSpacing=3;spacingLeft=10;spacingRight=10;allowArrows=1;rotatable=0;overflow=hidden;whiteSpace=wrap;fontSize=14;" parent="1" vertex="1">
                        <mxGeometry width="240" height="30" as="geometry"/>
                    </mxCell>
                </UserObject>
            </root>
        </mxGraphModel>
    </diagram>
</mxfile>
