<mxfile host="Electron" modified="2024-11-20T18:04:57.132Z" agent="Mozilla/5.0 (X11; Linux x86_64) AppleWebKit/537.36 (KHTML, like Gecko) draw.io/23.0.2 Chrome/120.0.6099.109 Electron/28.1.0 Safari/537.36" version="23.0.2" etag="9384924666234914734">
    <diagram>
        <mxGraphModel>
            <root>
                <mxCell id="0"/>
                <mxCell id="1" parent="0"/>
                <UserObject id="element-1">
                    <mxCell style="swimlane;collapsible=1;childLayout=stackLayout;swimlaneFillColor=default;resizeParent=1;resizeLast=0;resizeParentMax=0;marginBottom=10;marginTop=10;marginRight=10;marginLeft=10;spacingLeft=5;spacingRight=5;fontStyle=0;startSize=0;points=[];html=1;shadow=1;perimeterSpacing=3;spacingLeft=10;spacingRight=10;allowArrows=1;rotatable=0;overflow=hidden;whiteSpace=wrap;fontSize=14;horizontalStack=0;" parent="1" vertex="1">
                        <mxGeometry y="50" width="120" height="80" as="geometry"/>
                    </mxCell>
                </UserObject>
                <UserObject id="element-3a" label="&amp;lt;subject_a&amp;gt;">
                    <mxCell style="points=[];html=1;shadow=1;perimeterSpacing=3;spacingLeft=10;spacingRight=10;allowArrows=1;rotatable=0;overflow=hidden;whiteSpace=wrap;fontSize=14;" parent="element-1" vertex="1">
                        <mxGeometry x="10" y="10" width="100" height="30" as="geometry"/>
                    </mxCell>
                </UserObject>
                <UserObject id="element-3b" label="&amp;lt;subject_b&amp;gt;">
                    <mxCell style="points=[];html=1;shadow=1;perimeterSpacing=3;spacingLeft=10;spacingRight=10;allowArrows=1;rotatable=0;overflow=hidden;whiteSpace=wrap;fontSize=14;" parent="element-1" vertex="1">
                        <mxGeometry x="10" y="40" width="100" height="30" as="geometry"/>
                    </mxCell>
                </UserObject>
                <UserObject id="element-2" label="&amp;lt;object&amp;gt;">
                    <mxCell style="points=[];html=1;shadow=1;perimeterSpacing=3;spacingLeft=10;spacingRight=10;allowArrows=1;rotatable=0;overflow=hidden;whiteSpace=wrap;fontSize=14;" parent="1" vertex="1">
                        <mxGeometry x="240" y="75" width="120" height="30" as="geometry"/>
                    </mxCell>
                </UserObject>
                <UserObject id="hdrYqPffzJdY2Gu-pTqZ-2" label="@base &amp;lt;http://base.org#&amp;gt; .">
                    <mxCell style="points=[];html=1;shadow=1;perimeterSpacing=3;spacingLeft=10;spacingRight=10;allowArrows=1;rotatable=0;overflow=hidden;whiteSpace=wrap;fontSize=14;" parent="1" vertex="1">
                        <mxGeometry width="240" height="30" as="geometry"/>
                    </mxCell>
                </UserObject>
                <UserObject id="2" label="&amp;lt;predicate&amp;gt;">
                    <mxCell style="html=1;edgeStyle=elbowEdgeStyle;rounded=0;orthogonalLoop=1;jettySize=auto;endArrow=block;endFill=1;endSize=5;spacingBottom=20;shadow=1;fontSize=14;labelBackgroundColor=none;" parent="1" source="element-1" target="element-2" edge="1">
                        <mxGeometry as="geometry" relative="1"/>
                    </mxCell>
                </UserObject>
            </root>
        </mxGraphModel>
    </diagram>
</mxfile>
