---
source: rdf-diagram-lib/src/diagram/formats/drawio/to_diagram.rs
expression: diagram
input_file: rdf-diagram-lib/tests/rdf-diagram/iri-prefix.drawio
---
HashMapGraph {
    nodes: {
        Id(
            "element-2",
        ): Node {
            id: Id(
                "element-2",
            ),
            geometry: Rect(120x30 at (
                240,
                60,
            )),
            label: "ex:object",
        },
        Id(
            "element-0",
        ): Node {
            id: Id(
                "element-0",
            ),
            geometry: Rect(240x30 at (
                0,
                0,
            )),
            label: "@prefix ex: <http://ex.org#> .",
        },
        Id(
            "element-1",
        ): Node {
            id: Id(
                "element-1",
            ),
            geometry: Rect(120x30 at (
                0,
                60,
            )),
            label: "ex:subject",
        },
    },
    edges: {
        Id(
            "2",
        ): Edge {
            id: Id(
                "2",
            ),
            label: "ex:predicate",
            source: Id(
                "element-1",
            ),
            target: Id(
                "element-2",
            ),
        },
    },
}
