---
source: rdf-diagram-lib/src/diagram/formats/drawio/to_diagram.rs
expression: diagram
input_file: rdf-diagram-lib/tests/rdf-diagram/blank-node.drawio
---
HashMapGraph {
    nodes: {
        Id(
            "element-2",
        ): Node {
            id: Id(
                "element-2",
            ),
            geometry: Rect(120x30 at (
                240,
                50,
            )),
            label: "[]",
        },
        Id(
            "element-1",
        ): Node {
            id: Id(
                "element-1",
            ),
            geometry: Rect(160x30 at (
                0,
                50,
            )),
            label: "_:named_blank_node",
        },
        Id(
            "IYC8xWFUJSnuBJYAmgOQ-2",
        ): Node {
            id: Id(
                "IYC8xWFUJSnuBJYAmgOQ-2",
            ),
            geometry: Rect(120x30 at (
                240,
                100,
            )),
            label: "",
        },
        Id(
            "IYC8xWFUJSnuBJYAmgOQ-3",
        ): Node {
            id: Id(
                "IYC8xWFUJSnuBJYAmgOQ-3",
            ),
            geometry: Rect(160x30 at (
                0,
                100,
            )),
            label: "_:named_blank_node",
        },
        Id(
            "x2UAU_IKhGwk_fi_8qq7-2",
        ): Node {
            id: Id(
                "x2UAU_IKhGwk_fi_8qq7-2",
            ),
            geometry: Rect(240x30 at (
                0,
                0,
            )),
            label: "@base <http://base.org#> .",
        },
    },
    edges: {
        Id(
            "2",
        ): Edge {
            id: Id(
                "2",
            ),
            label: "<p>",
            source: Id(
                "element-1",
            ),
            target: Id(
                "element-2",
            ),
        },
        Id(
            "IYC8xWFUJSnuBJYAmgOQ-4",
        ): Edge {
            id: Id(
                "IYC8xWFUJSnuBJYAmgOQ-4",
            ),
            label: "<p>",
            source: Id(
                "IYC8xWFUJSnuBJYAmgOQ-3",
            ),
            target: Id(
                "IYC8xWFUJSnuBJYAmgOQ-2",
            ),
        },
    },
}
