---
source: rdf-diagram-lib/src/diagram/formats/drawio/to_diagram.rs
expression: diagram
input_file: rdf-diagram-lib/tests/diagram/edges-named-container.drawio
---
HashMapGraph {
    nodes: {
        Id(
            "element-1",
        ): Container {
            id: Id(
                "element-1",
            ),
            geometry: Rect(120x140 at (
                0,
                0,
            )),
            label: "NamedContainer",
            orientation: Horizontal,
            containees_orientation: Vertical,
            containees: [
                Id(
                    "element-4",
                ),
                Id(
                    "element-5",
                ),
                Id(
                    "element-6",
                ),
            ],
        },
        Id(
            "element-4",
        ): Node {
            id: Id(
                "element-4",
            ),
            geometry: Rect(100x30 at (
                10,
                40,
            )),
            label: "Node",
        },
        Id(
            "element-5",
        ): Node {
            id: Id(
                "element-5",
            ),
            geometry: Rect(100x30 at (
                10,
                70,
            )),
            label: "Node",
        },
        Id(
            "element-6",
        ): Node {
            id: Id(
                "element-6",
            ),
            geometry: Rect(100x30 at (
                10,
                100,
            )),
            label: "Node",
        },
        Id(
            "element-2",
        ): Node {
            id: Id(
                "element-2",
            ),
            geometry: Rect(120x30 at (
                320,
                40,
            )),
            label: "Node",
        },
        Id(
            "element-3",
        ): Node {
            id: Id(
                "element-3",
            ),
            geometry: Rect(120x30 at (
                0,
                220,
            )),
            label: "Node",
        },
    },
    edges: {
        Id(
            "2",
        ): Edge {
            id: Id(
                "2",
            ),
            label: "Edge",
            source: Id(
                "element-2",
            ),
            target: Id(
                "element-5",
            ),
        },
        Id(
            "3",
        ): Edge {
            id: Id(
                "3",
            ),
            label: "Edge",
            source: Id(
                "element-3",
            ),
            target: Id(
                "element-1",
            ),
        },
    },
}
