---
source: rdf-diagram-lib/src/diagram/formats/drawio/to_diagram.rs
expression: diagram
input_file: rdf-diagram-lib/tests/diagram/property.drawio
---
HashMapGraph {
    nodes: {
        Id(
            "7a3Ddo23lTM7x1-kSzhv-1",
        ): Node {
            id: Id(
                "7a3Ddo23lTM7x1-kSzhv-1",
            ),
            geometry: Rect(200x30 at (
                0,
                0,
            )),
            label: "<predicate> <object>",
        },
    },
    edges: {},
}
