<mxfile host="Electron" modified="2024-02-23T05:15:46.818Z" agent="Mozilla/5.0 (X11; Linux x86_64) AppleWebKit/537.36 (KHTML, like Gecko) draw.io/23.1.5 Chrome/120.0.6099.109 Electron/28.1.0 Safari/537.36" etag="7KYhHPHm-tO0LR2uUaw3" version="23.1.5" type="device">
  <diagram name="Page-1" id="M0655Lu74T7ZxwSGENYg">
    <mxGraphModel dx="1674" dy="1027" grid="1" gridSize="10" guides="1" tooltips="1" connect="1" arrows="1" fold="1" page="1" pageScale="1" pageWidth="850" pageHeight="1100" math="0" shadow="0">
      <root>
        <mxCell id="0" />
        <mxCell id="1" parent="0" />
        <UserObject label="&lt;div&gt;BASE&amp;nbsp; &amp;nbsp;&amp;lt;http://example.org/&amp;gt;&lt;/div&gt;&lt;div&gt;PREFIX foaf: &amp;lt;http://xmlns.com/foaf/0.1/&amp;gt;&lt;/div&gt;&lt;div&gt;PREFIX xsd: &amp;lt;http://www.w3.org/2001/XMLSchema#&amp;gt;&lt;/div&gt;&lt;div&gt;PREFIX schema: &amp;lt;http://schema.org/&amp;gt;&lt;/div&gt;&lt;div&gt;PREFIX dcterms: &amp;lt;http://purl.org/dc/terms/&amp;gt;&lt;/div&gt;&lt;div&gt;PREFIX wd: &amp;lt;http://www.wikidata.org/entity/&amp;gt;&lt;/div&gt;&lt;div&gt;PREFIX dbp: &amp;lt;http://dbpedia.org/resource/&amp;gt;&lt;/div&gt;" id="AkLe--dCv1DJlrvA5J_q-1">
          <mxCell style="points=[];html=1;shadow=1;perimeterSpacing=3;spacingLeft=10;fontSize=14;" parent="1" vertex="1">
            <mxGeometry width="360" height="140" as="geometry" />
          </mxCell>
        </UserObject>
        <UserObject label="&lt;div&gt;&amp;lt;bob#me&amp;gt;&lt;/div&gt;" id="AkLe--dCv1DJlrvA5J_q-2">
          <mxCell style="swimlane;whiteSpace=wrap;collapsible=1;childLayout=stackLayout;swimlaneFillColor=default;rotatable=0;resizeParent=1;resizeLast=0;resizeParentMax=0;marginBottom=10;marginTop=10;marginRight=10;marginLeft=10;spacingLeft=5;spacingRight=5;fontStyle=0;startSize=30;points=[];html=1;shadow=1;perimeterSpacing=3;spacingLeft=10;fontSize=14;horizontal=1;horizontalStack=0;" parent="1" vertex="1">
            <mxGeometry y="180" width="300" height="140" as="geometry" />
          </mxCell>
        </UserObject>
        <UserObject label="a foaf:Person" id="AkLe--dCv1DJlrvA5J_q-3">
          <mxCell style="points=[];html=1;shadow=1;perimeterSpacing=3;spacingLeft=10;fontSize=14;" parent="AkLe--dCv1DJlrvA5J_q-2" vertex="1">
            <mxGeometry x="10" y="40" width="280" height="30" as="geometry" />
          </mxCell>
        </UserObject>
        <UserObject label="schema:birthDate &quot;1990-07-04&quot;^^xsd:date" id="AkLe--dCv1DJlrvA5J_q-5">
          <mxCell style="points=[];html=1;shadow=1;perimeterSpacing=3;spacingLeft=10;fontSize=14;" parent="AkLe--dCv1DJlrvA5J_q-2" vertex="1">
            <mxGeometry x="10" y="70" width="280" height="30" as="geometry" />
          </mxCell>
        </UserObject>
        <UserObject label="foaf:knows &amp;lt;alice#me&amp;gt;" id="AkLe--dCv1DJlrvA5J_q-4">
          <mxCell style="points=[];html=1;shadow=1;perimeterSpacing=3;spacingLeft=10;fontSize=14;" parent="AkLe--dCv1DJlrvA5J_q-2" vertex="1">
            <mxGeometry x="10" y="100" width="280" height="30" as="geometry" />
          </mxCell>
        </UserObject>
        <UserObject label="wd:Q12418" id="AkLe--dCv1DJlrvA5J_q-6">
          <mxCell style="swimlane;whiteSpace=wrap;collapsible=1;childLayout=stackLayout;swimlaneFillColor=default;rotatable=0;resizeParent=1;resizeLast=0;resizeParentMax=0;marginBottom=10;marginTop=10;marginRight=10;marginLeft=10;spacingLeft=5;spacingRight=5;fontStyle=0;startSize=30;points=[];html=1;shadow=1;perimeterSpacing=3;spacingLeft=10;fontSize=14;horizontal=1;horizontalStack=0;" parent="1" vertex="1">
            <mxGeometry x="480" y="195" width="320" height="110" as="geometry" />
          </mxCell>
        </UserObject>
        <UserObject label="dcterms:title &quot;Mona Lisa&quot;" id="AkLe--dCv1DJlrvA5J_q-7">
          <mxCell style="points=[];html=1;shadow=1;perimeterSpacing=3;spacingLeft=10;fontSize=14;" parent="AkLe--dCv1DJlrvA5J_q-6" vertex="1">
            <mxGeometry x="10" y="40" width="300" height="30" as="geometry" />
          </mxCell>
        </UserObject>
        <UserObject label="dcterms:creator dbp:Leonardo_da_Vinci" id="AkLe--dCv1DJlrvA5J_q-13">
          <mxCell style="points=[];html=1;shadow=1;perimeterSpacing=3;spacingLeft=10;fontSize=14;" parent="AkLe--dCv1DJlrvA5J_q-6" vertex="1">
            <mxGeometry x="10" y="70" width="300" height="30" as="geometry" />
          </mxCell>
        </UserObject>
        <UserObject label="foaf:topic_interest" id="AkLe--dCv1DJlrvA5J_q-8">
          <mxCell style="html=1;edgeStyle=elbowEdgeStyle;rounded=0;orthogonalLoop=1;jettySize=auto;endArrow=block;endFill=1;endSize=5;spacingBottom=20;shadow=1;fontSize=14;" parent="1" source="AkLe--dCv1DJlrvA5J_q-2" target="AkLe--dCv1DJlrvA5J_q-6" edge="1">
            <mxGeometry relative="1" as="geometry">
              <mxPoint x="220" y="380" as="sourcePoint" />
              <mxPoint x="334" y="380" as="targetPoint" />
            </mxGeometry>
          </mxCell>
        </UserObject>
        <UserObject label="&amp;lt;http://data.europeana.eu/item/04802/243FA8618938F4117025F17A8B813C5F9AA4D619&amp;gt;" id="AkLe--dCv1DJlrvA5J_q-14">
          <mxCell style="points=[];html=1;shadow=1;perimeterSpacing=3;spacingLeft=10;fontSize=14;overflow=hidden;" parent="1" vertex="1">
            <mxGeometry x="200" y="400" width="600" height="30" as="geometry" />
          </mxCell>
        </UserObject>
        <UserObject label="dcterms:subject" id="AkLe--dCv1DJlrvA5J_q-15">
          <mxCell style="html=1;edgeStyle=elbowEdgeStyle;rounded=0;orthogonalLoop=1;jettySize=auto;endArrow=block;endFill=1;endSize=5;spacingBottom=20;shadow=1;fontSize=14;" parent="1" source="AkLe--dCv1DJlrvA5J_q-14" target="AkLe--dCv1DJlrvA5J_q-6" edge="1">
            <mxGeometry x="-0.0655" relative="1" as="geometry">
              <mxPoint x="500" y="550" as="sourcePoint" />
              <mxPoint x="487" y="450" as="targetPoint" />
              <mxPoint as="offset" />
            </mxGeometry>
          </mxCell>
        </UserObject>
      </root>
    </mxGraphModel>
  </diagram>
</mxfile>
