<mxfile host="Electron" modified="2024-02-15T14:34:44.778Z" agent="Mozilla/5.0 (X11; Linux x86_64) AppleWebKit/537.36 (KHTML, like Gecko) draw.io/23.0.2 Chrome/120.0.6099.109 Electron/28.1.0 Safari/537.36" etag="q_E1KTmOXtxrpLYG9d8x" version="23.0.2" type="device">
  <diagram id="0" name="Page-1">
    <mxGraphModel dx="712" dy="1001" grid="1" gridSize="10" guides="1" tooltips="1" connect="1" arrows="1" fold="1" page="1" pageScale="1" pageWidth="850" pageHeight="1100" math="0" shadow="0">
      <root>
        <mxCell id="0" />
        <mxCell id="1" parent="0" />
        <UserObject label="&amp;lt;object&amp;gt;" id="element-2">
          <mxCell style="points=[];html=1;shadow=1;perimeterSpacing=3;spacingLeft=10;spacingRight=10;allowArrows=0;rotatable=0;whiteSpace=wrap;fontSize=14;" parent="1" vertex="1">
            <mxGeometry x="240" y="60" width="120" height="30" as="geometry" />
          </mxCell>
        </UserObject>
        <UserObject label="@base &amp;lt;http://base.org#&amp;gt; ." id="element-0">
          <mxCell style="points=[];html=1;shadow=1;perimeterSpacing=3;spacingLeft=10;spacingRight=10;allowArrows=0;rotatable=0;whiteSpace=wrap;fontSize=14;" parent="1" vertex="1">
            <mxGeometry width="240" height="30" as="geometry" />
          </mxCell>
        </UserObject>
        <UserObject label="&amp;lt;subject&amp;gt;" id="element-1">
          <mxCell style="points=[];html=1;shadow=1;perimeterSpacing=3;spacingLeft=10;spacingRight=10;allowArrows=0;rotatable=0;whiteSpace=wrap;fontSize=14;" parent="1" vertex="1">
            <mxGeometry y="60" width="120" height="30" as="geometry" />
          </mxCell>
        </UserObject>
        <UserObject label="&amp;lt;predicate&amp;gt;" id="2">
          <mxCell style="html=1;edgeStyle=elbowEdgeStyle;rounded=0;orthogonalLoop=1;jettySize=auto;endArrow=block;endFill=1;endSize=5;spacingBottom=20;shadow=1;fontSize=14;" parent="1" source="element-1" target="element-2" edge="1">
            <mxGeometry relative="1" as="geometry" />
          </mxCell>
        </UserObject>
      </root>
    </mxGraphModel>
  </diagram>
</mxfile>
