<mxfile host="Electron" modified="2024-02-24T14:10:41.677Z" agent="Mozilla/5.0 (X11; Linux x86_64) AppleWebKit/537.36 (KHTML, like Gecko) draw.io/23.1.5 Chrome/120.0.6099.109 Electron/28.1.0 Safari/537.36" etag="mGnJOEYwm6COlg5W01dq" version="23.1.5" type="device">
  <diagram name="Page-1" id="d4yTNY4ZT00ROFeky3Tk">
    <mxGraphModel dx="472" dy="2101" grid="1" gridSize="10" guides="1" tooltips="1" connect="1" arrows="1" fold="1" page="1" pageScale="1" pageWidth="850" pageHeight="1100" math="0" shadow="0">
      <root>
        <mxCell id="0" />
        <mxCell id="1" parent="0" />
        <UserObject id="5AiCtx2zGRSxKoqrEHmG-72">
          <mxCell style="swimlane;whiteSpace=wrap;collapsible=1;childLayout=stackLayout;swimlaneFillColor=default;rotatable=0;resizeParent=1;resizeLast=0;resizeParentMax=0;marginBottom=10;marginTop=10;marginRight=10;marginLeft=10;spacingLeft=5;spacingRight=5;fontStyle=0;startSize=0;points=[];html=1;shadow=1;perimeterSpacing=3;spacingLeft=10;fontSize=14;horizontalStack=1;" parent="1" vertex="1">
            <mxGeometry x="560" y="720" width="500" height="50" as="geometry" />
          </mxCell>
        </UserObject>
        <UserObject label="&amp;lt;RegionOfInterest&amp;gt;" id="5AiCtx2zGRSxKoqrEHmG-67">
          <mxCell style="points=[];html=1;shadow=1;perimeterSpacing=3;spacingLeft=10;fontSize=14;horizontal=1;" parent="5AiCtx2zGRSxKoqrEHmG-72" vertex="1">
            <mxGeometry x="10" y="10" width="160" height="30" as="geometry" />
          </mxCell>
        </UserObject>
        <UserObject label="&amp;lt;Magnification&amp;gt;" id="5AiCtx2zGRSxKoqrEHmG-68">
          <mxCell style="points=[];html=1;shadow=1;perimeterSpacing=3;spacingLeft=10;fontSize=14;" parent="5AiCtx2zGRSxKoqrEHmG-72" vertex="1">
            <mxGeometry x="170" y="10" width="160" height="30" as="geometry" />
          </mxCell>
        </UserObject>
        <UserObject label="&amp;lt;OperationMode&amp;gt;" id="5AiCtx2zGRSxKoqrEHmG-66">
          <mxCell style="points=[];html=1;shadow=1;perimeterSpacing=3;spacingLeft=10;fontSize=14;" parent="5AiCtx2zGRSxKoqrEHmG-72" vertex="1">
            <mxGeometry x="330" y="10" width="160" height="30" as="geometry" />
          </mxCell>
        </UserObject>
        <UserObject label="&lt;div&gt;BASE &amp;lt;http://base/&amp;gt;&lt;br&gt;&lt;/div&gt;&lt;div&gt;PREFIX mseo: &amp;lt;https://purl.matolab.org/mseo/mid/&amp;gt;&lt;/div&gt;&lt;div&gt;PREFIX iof: &amp;lt;https://spec.industrialontologies.org/ontology/core/Core/&amp;gt;&lt;/div&gt;&lt;div&gt;PREFIX iof-av: &amp;lt;https://spec.industrialontologies.org/ontology/core/meta/AnnotationVocabulary/&amp;gt;&lt;/div&gt;&lt;div&gt;PREFIX obo: &amp;lt;http://purl.obolibrary.org/obo/&amp;gt;&lt;/div&gt;&lt;div&gt;PREFIX mutil: &amp;lt;https://github.com/Mat-O-Lab/MSEO/raw/main/domain/util/snake_case_bfo_iris.ttl/&amp;gt;&lt;/div&gt;&lt;div&gt;PREFIX dc: &amp;lt;http://purl.org/dc/elements/1.1/&amp;gt;&lt;/div&gt;" id="5AiCtx2zGRSxKoqrEHmG-3">
          <mxCell style="points=[];html=1;shadow=1;perimeterSpacing=3;spacingLeft=10;fontSize=14;align=left;" parent="1" vertex="1">
            <mxGeometry y="-600" width="640" height="120" as="geometry" />
          </mxCell>
        </UserObject>
        <UserObject label="&amp;lt;&amp;gt;" id="5AiCtx2zGRSxKoqrEHmG-4">
          <mxCell style="swimlane;whiteSpace=wrap;collapsible=1;childLayout=stackLayout;swimlaneFillColor=default;rotatable=0;resizeParent=1;resizeLast=0;resizeParentMax=0;marginBottom=10;marginTop=10;marginRight=10;marginLeft=10;spacingLeft=5;spacingRight=5;fontStyle=0;startSize=30;points=[];html=1;shadow=1;perimeterSpacing=3;spacingLeft=10;fontSize=14;horizontal=1;horizontalStack=0;" parent="1" vertex="1">
            <mxGeometry x="1255" y="-600" width="320" height="160" as="geometry" />
          </mxCell>
        </UserObject>
        <UserObject label="dc:title &quot;Light Microscopy&quot;" id="5AiCtx2zGRSxKoqrEHmG-23">
          <mxCell style="points=[];html=1;shadow=1;perimeterSpacing=3;spacingLeft=10;fontSize=14;" parent="5AiCtx2zGRSxKoqrEHmG-4" vertex="1">
            <mxGeometry x="10" y="40" width="300" height="30" as="geometry" />
          </mxCell>
        </UserObject>
        <UserObject label="dc:creator" id="5AiCtx2zGRSxKoqrEHmG-6">
          <mxCell style="swimlane;whiteSpace=wrap;collapsible=1;childLayout=stackLayout;swimlaneFillColor=default;rotatable=0;resizeParent=1;resizeLast=0;resizeParentMax=0;marginBottom=10;marginTop=10;marginRight=10;marginLeft=10;spacingLeft=5;spacingRight=5;fontStyle=0;startSize=30;points=[];html=1;shadow=1;perimeterSpacing=3;spacingLeft=10;fontSize=14;horizontal=0;horizontalStack=0;" parent="5AiCtx2zGRSxKoqrEHmG-4" vertex="1">
            <mxGeometry x="10" y="70" width="300" height="80" as="geometry" />
          </mxCell>
        </UserObject>
        <UserObject label="&quot;Thomas Hanke&quot;" id="5AiCtx2zGRSxKoqrEHmG-7">
          <mxCell style="points=[];html=1;shadow=1;perimeterSpacing=3;spacingLeft=10;fontSize=14;" parent="5AiCtx2zGRSxKoqrEHmG-6" vertex="1">
            <mxGeometry x="40" y="10" width="250" height="30" as="geometry" />
          </mxCell>
        </UserObject>
        <UserObject label="&quot;Gordian Dziwis&quot;" id="5AiCtx2zGRSxKoqrEHmG-5">
          <mxCell style="points=[];html=1;shadow=1;perimeterSpacing=3;spacingLeft=10;fontSize=14;" parent="5AiCtx2zGRSxKoqrEHmG-6" vertex="1">
            <mxGeometry x="40" y="40" width="250" height="30" as="geometry" />
          </mxCell>
        </UserObject>
        <UserObject label="&amp;lt;LightMicroscopy&amp;gt;" id="5AiCtx2zGRSxKoqrEHmG-24">
          <mxCell style="swimlane;whiteSpace=wrap;collapsible=1;childLayout=stackLayout;swimlaneFillColor=default;rotatable=0;resizeParent=1;resizeLast=0;resizeParentMax=0;marginBottom=10;marginTop=10;marginRight=10;marginLeft=10;spacingLeft=5;spacingRight=5;fontStyle=0;startSize=30;points=[];html=1;shadow=1;perimeterSpacing=3;spacingLeft=10;fontSize=14;horizontal=1;horizontalStack=0;fillColor=#f5f5f5;fontColor=#333333;strokeColor=#666666;" parent="1" vertex="1">
            <mxGeometry x="480" y="-120" width="320" height="320" as="geometry" />
          </mxCell>
        </UserObject>
        <UserObject label="a mseo:Experiment" id="5AiCtx2zGRSxKoqrEHmG-25">
          <mxCell style="points=[];html=1;shadow=1;perimeterSpacing=3;spacingLeft=10;fontSize=14;" parent="5AiCtx2zGRSxKoqrEHmG-24" vertex="1">
            <mxGeometry x="10" y="40" width="300" height="30" as="geometry" />
          </mxCell>
        </UserObject>
        <UserObject label="mutil:participates_in_at_all_times&lt;br style=&quot;border-color: var(--border-color);&quot;&gt;" id="5AiCtx2zGRSxKoqrEHmG-104">
          <mxCell style="swimlane;whiteSpace=wrap;collapsible=1;childLayout=stackLayout;swimlaneFillColor=default;rotatable=0;resizeParent=1;resizeLast=0;resizeParentMax=0;marginBottom=10;marginTop=10;marginRight=10;marginLeft=10;spacingLeft=5;spacingRight=5;fontStyle=0;startSize=30;points=[];html=1;shadow=1;perimeterSpacing=3;spacingLeft=10;fontSize=14;horizontal=1;horizontalStack=0;" parent="5AiCtx2zGRSxKoqrEHmG-24" vertex="1">
            <mxGeometry x="10" y="70" width="300" height="80" as="geometry">
              <mxRectangle x="10" y="70" width="250" height="30" as="alternateBounds" />
            </mxGeometry>
          </mxCell>
        </UserObject>
        <UserObject label="&amp;lt;Operator&amp;gt;" id="5AiCtx2zGRSxKoqrEHmG-89">
          <mxCell style="swimlane;whiteSpace=wrap;collapsible=1;childLayout=stackLayout;swimlaneFillColor=default;rotatable=0;resizeParent=1;resizeLast=0;resizeParentMax=0;marginBottom=10;marginTop=10;marginRight=10;marginLeft=10;spacingLeft=5;spacingRight=5;fontStyle=0;startSize=30;points=[];html=1;shadow=1;perimeterSpacing=3;spacingLeft=10;fontSize=14;horizontal=1;horizontalStack=0;fillColor=#f5f5f5;fontColor=#333333;strokeColor=#666666;" parent="5AiCtx2zGRSxKoqrEHmG-104" vertex="1" collapsed="1">
            <mxGeometry x="10" y="40" width="280" height="30" as="geometry">
              <mxRectangle x="10" y="40" width="280" height="80" as="alternateBounds" />
            </mxGeometry>
          </mxCell>
        </UserObject>
        <UserObject label="a iof:Agent" id="5AiCtx2zGRSxKoqrEHmG-90">
          <mxCell style="points=[];html=1;shadow=1;perimeterSpacing=3;spacingLeft=10;fontSize=14;" parent="5AiCtx2zGRSxKoqrEHmG-89" vertex="1">
            <mxGeometry x="10" y="40" width="260" height="30" as="geometry" />
          </mxCell>
        </UserObject>
        <UserObject label="mutil:occupies_temporal_region" id="5AiCtx2zGRSxKoqrEHmG-106">
          <mxCell style="swimlane;whiteSpace=wrap;collapsible=1;childLayout=stackLayout;swimlaneFillColor=default;rotatable=0;resizeParent=1;resizeLast=0;resizeParentMax=0;marginBottom=10;marginTop=10;marginRight=10;marginLeft=10;spacingLeft=5;spacingRight=5;fontStyle=0;startSize=30;points=[];html=1;shadow=1;perimeterSpacing=3;spacingLeft=10;fontSize=14;horizontal=1;horizontalStack=0;" parent="5AiCtx2zGRSxKoqrEHmG-24" vertex="1">
            <mxGeometry x="10" y="150" width="300" height="80" as="geometry">
              <mxRectangle x="10" y="100" width="250" height="30" as="alternateBounds" />
            </mxGeometry>
          </mxCell>
        </UserObject>
        <UserObject label="&amp;lt;ExperimentTimeInterval&amp;gt;" id="5AiCtx2zGRSxKoqrEHmG-96">
          <mxCell style="swimlane;whiteSpace=wrap;collapsible=1;childLayout=stackLayout;swimlaneFillColor=default;rotatable=0;resizeParent=1;resizeLast=0;resizeParentMax=0;marginBottom=10;marginTop=10;marginRight=10;marginLeft=10;spacingLeft=5;spacingRight=5;fontStyle=0;startSize=30;points=[];html=1;shadow=1;perimeterSpacing=3;spacingLeft=10;fontSize=14;horizontal=1;horizontalStack=0;fillColor=#f5f5f5;fontColor=#333333;strokeColor=#666666;" parent="5AiCtx2zGRSxKoqrEHmG-106" vertex="1" collapsed="1">
            <mxGeometry x="10" y="40" width="280" height="30" as="geometry">
              <mxRectangle x="10" y="40" width="250" height="80" as="alternateBounds" />
            </mxGeometry>
          </mxCell>
        </UserObject>
        <UserObject label="a obo:BFO_0000008" id="5AiCtx2zGRSxKoqrEHmG-97">
          <mxCell style="points=[];html=1;shadow=1;perimeterSpacing=3;spacingLeft=10;fontSize=14;" parent="5AiCtx2zGRSxKoqrEHmG-96" vertex="1">
            <mxGeometry x="10" y="40" width="230" height="30" as="geometry" />
          </mxCell>
        </UserObject>
        <UserObject label="iof:prescribedBy" id="5AiCtx2zGRSxKoqrEHmG-108">
          <mxCell style="swimlane;whiteSpace=wrap;collapsible=1;childLayout=stackLayout;swimlaneFillColor=default;rotatable=0;resizeParent=1;resizeLast=0;resizeParentMax=0;marginBottom=10;marginTop=10;marginRight=10;marginLeft=10;spacingLeft=5;spacingRight=5;fontStyle=0;startSize=30;points=[];html=1;shadow=1;perimeterSpacing=3;spacingLeft=10;fontSize=14;horizontal=1;horizontalStack=0;" parent="5AiCtx2zGRSxKoqrEHmG-24" vertex="1">
            <mxGeometry x="10" y="230" width="300" height="80" as="geometry" />
          </mxCell>
        </UserObject>
        <UserObject label="&amp;lt;TestPlan&amp;gt;" id="5AiCtx2zGRSxKoqrEHmG-92">
          <mxCell style="swimlane;whiteSpace=wrap;collapsible=1;childLayout=stackLayout;swimlaneFillColor=default;rotatable=0;resizeParent=1;resizeLast=0;resizeParentMax=0;marginBottom=10;marginTop=10;marginRight=10;marginLeft=10;spacingLeft=5;spacingRight=5;fontStyle=0;startSize=30;points=[];html=1;shadow=1;perimeterSpacing=3;spacingLeft=10;fontSize=14;horizontal=1;horizontalStack=0;fillColor=#f5f5f5;fontColor=#333333;strokeColor=#666666;" parent="5AiCtx2zGRSxKoqrEHmG-108" vertex="1" collapsed="1">
            <mxGeometry x="10" y="40" width="280" height="30" as="geometry">
              <mxRectangle x="10" y="40" width="250" height="80" as="alternateBounds" />
            </mxGeometry>
          </mxCell>
        </UserObject>
        <UserObject label="a iof:PlanSpecification" id="5AiCtx2zGRSxKoqrEHmG-94">
          <mxCell style="points=[];html=1;shadow=1;perimeterSpacing=3;spacingLeft=10;fontSize=14;" parent="5AiCtx2zGRSxKoqrEHmG-92" vertex="1">
            <mxGeometry x="10" y="40" width="230" height="30" as="geometry" />
          </mxCell>
        </UserObject>
        <UserObject id="5AiCtx2zGRSxKoqrEHmG-35">
          <mxCell style="swimlane;whiteSpace=wrap;collapsible=1;childLayout=stackLayout;swimlaneFillColor=default;rotatable=0;resizeParent=1;resizeLast=0;resizeParentMax=0;marginBottom=10;marginTop=10;marginRight=10;marginLeft=10;spacingLeft=5;spacingRight=5;fontStyle=0;startSize=0;points=[];html=1;shadow=1;perimeterSpacing=3;spacingLeft=10;fontSize=14;horizontalStack=1;horizontal=1;" parent="1" vertex="1">
            <mxGeometry x="560" y="600" width="1015" height="50" as="geometry" />
          </mxCell>
        </UserObject>
        <mxCell id="5AiCtx2zGRSxKoqrEHmG-27" value="&amp;lt;SampleAlignment&amp;gt;" style="points=[];html=1;shadow=1;perimeterSpacing=3;spacingLeft=10;fontSize=14;" parent="5AiCtx2zGRSxKoqrEHmG-35" vertex="1">
          <mxGeometry x="10" y="10" width="160" height="30" as="geometry" />
        </mxCell>
        <mxCell id="5AiCtx2zGRSxKoqrEHmG-28" value="&amp;lt;SetupMicroscope&amp;gt;" style="points=[];html=1;shadow=1;perimeterSpacing=3;spacingLeft=10;fontSize=14;" parent="5AiCtx2zGRSxKoqrEHmG-35" vertex="1">
          <mxGeometry x="170" y="10" width="160" height="30" as="geometry" />
        </mxCell>
        <mxCell id="5AiCtx2zGRSxKoqrEHmG-31" value="&amp;lt;FindFeature&amp;gt;" style="points=[];html=1;shadow=1;perimeterSpacing=3;spacingLeft=10;fontSize=14;" parent="5AiCtx2zGRSxKoqrEHmG-35" vertex="1">
          <mxGeometry x="330" y="10" width="160" height="30" as="geometry" />
        </mxCell>
        <mxCell id="5AiCtx2zGRSxKoqrEHmG-30" value="&amp;lt;MakeImage&amp;gt;" style="points=[];html=1;shadow=1;perimeterSpacing=3;spacingLeft=10;fontSize=14;" parent="5AiCtx2zGRSxKoqrEHmG-35" vertex="1">
          <mxGeometry x="490" y="10" width="160" height="30" as="geometry" />
        </mxCell>
        <mxCell id="5AiCtx2zGRSxKoqrEHmG-29" value="&amp;lt;ImagePostprocessing&amp;gt;" style="points=[];html=1;shadow=1;perimeterSpacing=3;spacingLeft=10;fontSize=14;" parent="5AiCtx2zGRSxKoqrEHmG-35" vertex="1">
          <mxGeometry x="650" y="10" width="195" height="30" as="geometry" />
        </mxCell>
        <mxCell id="5AiCtx2zGRSxKoqrEHmG-32" value="&amp;lt;ImageAsssement&amp;gt;" style="points=[];html=1;shadow=1;perimeterSpacing=3;spacingLeft=10;fontSize=14;" parent="5AiCtx2zGRSxKoqrEHmG-35" vertex="1">
          <mxGeometry x="845" y="10" width="160" height="30" as="geometry" />
        </mxCell>
        <UserObject label="mutil:precedes" id="5AiCtx2zGRSxKoqrEHmG-39">
          <mxCell style="html=1;edgeStyle=elbowEdgeStyle;rounded=0;orthogonalLoop=1;jettySize=auto;endArrow=block;endFill=1;endSize=5;spacingBottom=20;shadow=1;fontSize=14;" parent="5AiCtx2zGRSxKoqrEHmG-35" source="5AiCtx2zGRSxKoqrEHmG-28" target="5AiCtx2zGRSxKoqrEHmG-31" edge="1">
            <mxGeometry x="0.2514" relative="1" as="geometry">
              <mxPoint x="183" y="35" as="sourcePoint" />
              <mxPoint x="260" y="120" as="targetPoint" />
              <Array as="points">
                <mxPoint x="310" y="-20" />
              </Array>
              <mxPoint as="offset" />
            </mxGeometry>
          </mxCell>
        </UserObject>
        <UserObject label="mutil:precedes" id="5AiCtx2zGRSxKoqrEHmG-43">
          <mxCell style="html=1;edgeStyle=elbowEdgeStyle;rounded=0;orthogonalLoop=1;jettySize=auto;endArrow=block;endFill=1;endSize=5;spacingBottom=20;shadow=1;fontSize=14;" parent="5AiCtx2zGRSxKoqrEHmG-35" source="5AiCtx2zGRSxKoqrEHmG-30" target="5AiCtx2zGRSxKoqrEHmG-29" edge="1">
            <mxGeometry x="0.2514" relative="1" as="geometry">
              <mxPoint x="7" y="145" as="sourcePoint" />
              <mxPoint x="7" y="175" as="targetPoint" />
              <Array as="points">
                <mxPoint x="635" y="-20" />
              </Array>
              <mxPoint as="offset" />
            </mxGeometry>
          </mxCell>
        </UserObject>
        <UserObject label="mutil:precedes" id="5AiCtx2zGRSxKoqrEHmG-45">
          <mxCell style="html=1;edgeStyle=elbowEdgeStyle;rounded=0;orthogonalLoop=1;jettySize=auto;endArrow=block;endFill=1;endSize=5;spacingBottom=20;shadow=1;fontSize=14;" parent="5AiCtx2zGRSxKoqrEHmG-35" source="5AiCtx2zGRSxKoqrEHmG-29" target="5AiCtx2zGRSxKoqrEHmG-32" edge="1">
            <mxGeometry x="0.2487" relative="1" as="geometry">
              <mxPoint x="173" y="145" as="sourcePoint" />
              <mxPoint x="173" y="175" as="targetPoint" />
              <Array as="points">
                <mxPoint x="795" y="-20" />
              </Array>
              <mxPoint as="offset" />
            </mxGeometry>
          </mxCell>
        </UserObject>
        <UserObject label="mutil:precedes" id="5AiCtx2zGRSxKoqrEHmG-44">
          <mxCell style="html=1;edgeStyle=elbowEdgeStyle;rounded=0;orthogonalLoop=1;jettySize=auto;endArrow=block;endFill=1;endSize=5;spacingBottom=20;shadow=1;fontSize=14;" parent="5AiCtx2zGRSxKoqrEHmG-35" source="5AiCtx2zGRSxKoqrEHmG-31" target="5AiCtx2zGRSxKoqrEHmG-30" edge="1">
            <mxGeometry x="0.2487" relative="1" as="geometry">
              <mxPoint x="173" y="85" as="sourcePoint" />
              <mxPoint x="173" y="115" as="targetPoint" />
              <Array as="points">
                <mxPoint x="475" y="-20" />
              </Array>
              <mxPoint as="offset" />
            </mxGeometry>
          </mxCell>
        </UserObject>
        <UserObject label="mutil:precedes" id="5AiCtx2zGRSxKoqrEHmG-46">
          <mxCell style="html=1;edgeStyle=elbowEdgeStyle;rounded=0;orthogonalLoop=1;jettySize=auto;endArrow=block;endFill=1;endSize=5;spacingBottom=20;shadow=1;fontSize=14;" parent="5AiCtx2zGRSxKoqrEHmG-35" source="5AiCtx2zGRSxKoqrEHmG-27" target="5AiCtx2zGRSxKoqrEHmG-28" edge="1">
            <mxGeometry relative="1" as="geometry">
              <mxPoint x="180" y="400" as="sourcePoint" />
              <mxPoint x="60" y="-40" as="targetPoint" />
              <Array as="points">
                <mxPoint x="150" y="-20" />
              </Array>
            </mxGeometry>
          </mxCell>
        </UserObject>
        <UserObject label="mutil:has_occurrent_part" id="5AiCtx2zGRSxKoqrEHmG-37">
          <mxCell style="html=1;edgeStyle=elbowEdgeStyle;rounded=0;orthogonalLoop=1;jettySize=auto;endArrow=block;endFill=1;endSize=5;spacingBottom=20;shadow=1;fontSize=14;" parent="1" source="5AiCtx2zGRSxKoqrEHmG-24" target="5AiCtx2zGRSxKoqrEHmG-35" edge="1">
            <mxGeometry relative="1" as="geometry">
              <mxPoint x="773" y="500" as="sourcePoint" />
              <mxPoint x="867" y="660" as="targetPoint" />
              <mxPoint as="offset" />
            </mxGeometry>
          </mxCell>
        </UserObject>
        <UserObject label="&amp;lt;Specimen&amp;gt;" id="5AiCtx2zGRSxKoqrEHmG-47">
          <mxCell style="swimlane;whiteSpace=wrap;collapsible=1;childLayout=stackLayout;swimlaneFillColor=default;rotatable=0;resizeParent=1;resizeLast=0;resizeParentMax=0;marginBottom=10;marginTop=10;marginRight=10;marginLeft=10;spacingLeft=5;spacingRight=5;fontStyle=0;startSize=30;points=[];html=1;shadow=1;perimeterSpacing=3;spacingLeft=10;fontSize=14;horizontal=0;horizontalStack=0;fillColor=#f5f5f5;fontColor=#333333;strokeColor=#666666;" parent="1" vertex="1">
            <mxGeometry y="370" width="320" height="290" as="geometry" />
          </mxCell>
        </UserObject>
        <UserObject label="a mseo:Specimen" id="5AiCtx2zGRSxKoqrEHmG-48">
          <mxCell style="points=[];html=1;shadow=1;perimeterSpacing=3;spacingLeft=10;fontSize=14;" parent="5AiCtx2zGRSxKoqrEHmG-47" vertex="1">
            <mxGeometry x="40" y="10" width="270" height="30" as="geometry" />
          </mxCell>
        </UserObject>
        <UserObject label="iof:designatedBy" id="5AiCtx2zGRSxKoqrEHmG-141">
          <mxCell style="swimlane;whiteSpace=wrap;collapsible=1;childLayout=stackLayout;swimlaneFillColor=default;rotatable=0;resizeParent=1;resizeLast=0;resizeParentMax=0;marginBottom=10;marginTop=10;marginRight=10;marginLeft=10;spacingLeft=5;spacingRight=5;fontStyle=0;startSize=30;points=[];html=1;shadow=1;perimeterSpacing=3;spacingLeft=10;fontSize=14;horizontal=1;horizontalStack=0;" parent="5AiCtx2zGRSxKoqrEHmG-47" vertex="1">
            <mxGeometry x="40" y="40" width="270" height="80" as="geometry" />
          </mxCell>
        </UserObject>
        <UserObject label="&amp;lt;SpecimenName&amp;gt;" id="5AiCtx2zGRSxKoqrEHmG-51">
          <mxCell style="swimlane;whiteSpace=wrap;collapsible=1;childLayout=stackLayout;swimlaneFillColor=default;rotatable=0;resizeParent=1;resizeLast=0;resizeParentMax=0;marginBottom=10;marginTop=10;marginRight=10;marginLeft=10;spacingLeft=5;spacingRight=5;fontStyle=0;startSize=30;points=[];html=1;shadow=1;perimeterSpacing=3;spacingLeft=10;fontSize=14;horizontal=1;horizontalStack=0;fillColor=#f5f5f5;fontColor=#333333;strokeColor=#666666;" parent="5AiCtx2zGRSxKoqrEHmG-141" vertex="1" collapsed="1">
            <mxGeometry x="10" y="40" width="250" height="30" as="geometry">
              <mxRectangle x="10" y="40" width="250" height="80" as="alternateBounds" />
            </mxGeometry>
          </mxCell>
        </UserObject>
        <UserObject label="a iof:DesignativeInformationContentEntity" id="5AiCtx2zGRSxKoqrEHmG-52">
          <mxCell style="points=[];html=1;shadow=1;perimeterSpacing=3;spacingLeft=10;fontSize=14;" parent="5AiCtx2zGRSxKoqrEHmG-51" vertex="1">
            <mxGeometry x="10" y="40" width="230" height="30" as="geometry" />
          </mxCell>
        </UserObject>
        <UserObject label="iof:hasCapability" id="5AiCtx2zGRSxKoqrEHmG-139">
          <mxCell style="swimlane;whiteSpace=wrap;collapsible=1;childLayout=stackLayout;swimlaneFillColor=default;rotatable=0;resizeParent=1;resizeLast=0;resizeParentMax=0;marginBottom=10;marginTop=10;marginRight=10;marginLeft=10;spacingLeft=5;spacingRight=5;fontStyle=0;startSize=30;points=[];html=1;shadow=1;perimeterSpacing=3;spacingLeft=10;fontSize=14;horizontal=1;horizontalStack=0;" parent="5AiCtx2zGRSxKoqrEHmG-47" vertex="1">
            <mxGeometry x="40" y="120" width="270" height="80" as="geometry" />
          </mxCell>
        </UserObject>
        <UserObject label="&amp;lt;MicroscopySpecimen&amp;gt;" id="5AiCtx2zGRSxKoqrEHmG-56">
          <mxCell style="swimlane;whiteSpace=wrap;collapsible=1;childLayout=stackLayout;swimlaneFillColor=default;rotatable=0;resizeParent=1;resizeLast=0;resizeParentMax=0;marginBottom=10;marginTop=10;marginRight=10;marginLeft=10;spacingLeft=5;spacingRight=5;fontStyle=0;startSize=30;points=[];html=1;shadow=1;perimeterSpacing=3;spacingLeft=10;fontSize=14;horizontal=1;horizontalStack=0;fillColor=#f5f5f5;fontColor=#333333;strokeColor=#666666;" parent="5AiCtx2zGRSxKoqrEHmG-139" vertex="1" collapsed="1">
            <mxGeometry x="10" y="40" width="250" height="30" as="geometry">
              <mxRectangle x="10" y="40" width="250" height="80" as="alternateBounds" />
            </mxGeometry>
          </mxCell>
        </UserObject>
        <UserObject label="a mseo:MeasurementSpecimenFunction" id="5AiCtx2zGRSxKoqrEHmG-57">
          <mxCell style="points=[];html=1;shadow=1;perimeterSpacing=3;spacingLeft=10;fontSize=14;" parent="5AiCtx2zGRSxKoqrEHmG-56" vertex="1">
            <mxGeometry x="10" y="40" width="230" height="30" as="geometry" />
          </mxCell>
        </UserObject>
        <UserObject label="mutil:has_continuant_part_at_all_times" id="5AiCtx2zGRSxKoqrEHmG-63">
          <mxCell style="swimlane;whiteSpace=wrap;collapsible=1;childLayout=stackLayout;swimlaneFillColor=default;rotatable=0;resizeParent=1;resizeLast=0;resizeParentMax=0;marginBottom=10;marginTop=10;marginRight=10;marginLeft=10;spacingLeft=5;spacingRight=5;fontStyle=0;startSize=30;points=[];html=1;shadow=1;perimeterSpacing=3;spacingLeft=10;fontSize=14;horizontal=1;horizontalStack=0;" parent="5AiCtx2zGRSxKoqrEHmG-47" vertex="1">
            <mxGeometry x="40" y="200" width="270" height="80" as="geometry" />
          </mxCell>
        </UserObject>
        <UserObject label="&amp;lt;MeasurementRegion&amp;gt;" id="5AiCtx2zGRSxKoqrEHmG-60">
          <mxCell style="swimlane;whiteSpace=wrap;collapsible=1;childLayout=stackLayout;swimlaneFillColor=default;rotatable=0;resizeParent=1;resizeLast=0;resizeParentMax=0;marginBottom=10;marginTop=10;marginRight=10;marginLeft=10;spacingLeft=5;spacingRight=5;fontStyle=0;startSize=30;points=[];html=1;shadow=1;perimeterSpacing=3;spacingLeft=10;fontSize=14;horizontal=1;horizontalStack=0;fillColor=#f5f5f5;fontColor=#333333;strokeColor=#666666;" parent="5AiCtx2zGRSxKoqrEHmG-63" vertex="1" collapsed="1">
            <mxGeometry x="10" y="40" width="250" height="30" as="geometry">
              <mxRectangle x="10" y="40" width="250" height="80" as="alternateBounds" />
            </mxGeometry>
          </mxCell>
        </UserObject>
        <UserObject label="a mseo:MeasurementRegion" id="5AiCtx2zGRSxKoqrEHmG-61">
          <mxCell style="points=[];html=1;shadow=1;perimeterSpacing=3;spacingLeft=10;fontSize=14;" parent="5AiCtx2zGRSxKoqrEHmG-60" vertex="1">
            <mxGeometry x="10" y="40" width="230" height="30" as="geometry" />
          </mxCell>
        </UserObject>
        <UserObject label="iof:isInputOf" id="5AiCtx2zGRSxKoqrEHmG-58">
          <mxCell style="html=1;edgeStyle=elbowEdgeStyle;rounded=0;orthogonalLoop=1;jettySize=auto;endArrow=block;endFill=1;endSize=5;spacingBottom=20;shadow=1;fontSize=14;" parent="1" source="5AiCtx2zGRSxKoqrEHmG-47" target="5AiCtx2zGRSxKoqrEHmG-24" edge="1">
            <mxGeometry x="-0.3664" relative="1" as="geometry">
              <mxPoint x="635" y="533" as="sourcePoint" />
              <mxPoint x="635" y="607" as="targetPoint" />
              <mxPoint as="offset" />
              <Array as="points">
                <mxPoint x="560" y="400" />
              </Array>
            </mxGeometry>
          </mxCell>
        </UserObject>
        <UserObject label="mutil:location_of_at_all_times" id="5AiCtx2zGRSxKoqrEHmG-65">
          <mxCell style="html=1;edgeStyle=elbowEdgeStyle;rounded=0;orthogonalLoop=1;jettySize=auto;endArrow=block;endFill=1;endSize=5;spacingBottom=20;shadow=1;fontSize=14;" parent="1" source="5AiCtx2zGRSxKoqrEHmG-27" target="5AiCtx2zGRSxKoqrEHmG-60" edge="1">
            <mxGeometry relative="1" as="geometry">
              <mxPoint x="440" y="760" as="sourcePoint" />
              <mxPoint x="554" y="760" as="targetPoint" />
            </mxGeometry>
          </mxCell>
        </UserObject>
        <UserObject label="iof:prescribes" id="5AiCtx2zGRSxKoqrEHmG-69">
          <mxCell style="html=1;edgeStyle=elbowEdgeStyle;rounded=0;orthogonalLoop=1;jettySize=auto;endArrow=block;endFill=1;endSize=5;spacingBottom=20;shadow=1;fontSize=14;" parent="1" source="5AiCtx2zGRSxKoqrEHmG-68" target="5AiCtx2zGRSxKoqrEHmG-28" edge="1">
            <mxGeometry relative="1" as="geometry">
              <mxPoint x="630" y="700" as="sourcePoint" />
              <mxPoint x="744" y="700" as="targetPoint" />
              <mxPoint as="offset" />
            </mxGeometry>
          </mxCell>
        </UserObject>
        <UserObject label="iof:prescribes" id="5AiCtx2zGRSxKoqrEHmG-70">
          <mxCell style="html=1;edgeStyle=elbowEdgeStyle;rounded=0;orthogonalLoop=1;jettySize=auto;endArrow=block;endFill=1;endSize=5;spacingBottom=20;shadow=1;fontSize=14;" parent="1" source="5AiCtx2zGRSxKoqrEHmG-67" target="5AiCtx2zGRSxKoqrEHmG-27" edge="1">
            <mxGeometry relative="1" as="geometry">
              <mxPoint x="658" y="757" as="sourcePoint" />
              <mxPoint x="658" y="653" as="targetPoint" />
              <mxPoint as="offset" />
              <Array as="points">
                <mxPoint x="640" y="710" />
              </Array>
            </mxGeometry>
          </mxCell>
        </UserObject>
        <UserObject label="iof:prescribes" id="5AiCtx2zGRSxKoqrEHmG-71">
          <mxCell style="html=1;edgeStyle=elbowEdgeStyle;rounded=0;orthogonalLoop=1;jettySize=auto;endArrow=block;endFill=1;endSize=5;spacingBottom=20;shadow=1;fontSize=14;" parent="1" source="5AiCtx2zGRSxKoqrEHmG-66" target="5AiCtx2zGRSxKoqrEHmG-31" edge="1">
            <mxGeometry relative="1" as="geometry">
              <mxPoint x="668" y="767" as="sourcePoint" />
              <mxPoint x="668" y="663" as="targetPoint" />
              <mxPoint as="offset" />
            </mxGeometry>
          </mxCell>
        </UserObject>
        <UserObject label="a" id="5AiCtx2zGRSxKoqrEHmG-74">
          <mxCell style="html=1;edgeStyle=elbowEdgeStyle;rounded=0;orthogonalLoop=1;jettySize=auto;endArrow=block;endFill=1;endSize=5;spacingBottom=20;shadow=1;fontSize=14;" parent="1" source="5AiCtx2zGRSxKoqrEHmG-72" target="5AiCtx2zGRSxKoqrEHmG-75" edge="1">
            <mxGeometry relative="1" as="geometry">
              <mxPoint x="710" y="860" as="sourcePoint" />
              <mxPoint x="824" y="860" as="targetPoint" />
              <mxPoint as="offset" />
            </mxGeometry>
          </mxCell>
        </UserObject>
        <UserObject label="iof:ObjectiveSpecification" id="5AiCtx2zGRSxKoqrEHmG-75">
          <mxCell style="points=[];html=1;shadow=1;perimeterSpacing=3;spacingLeft=10;fontSize=14;" parent="1" vertex="1">
            <mxGeometry x="560" y="840" width="200" height="30" as="geometry" />
          </mxCell>
        </UserObject>
        <UserObject id="5AiCtx2zGRSxKoqrEHmG-76">
          <mxCell style="swimlane;whiteSpace=wrap;collapsible=1;childLayout=stackLayout;swimlaneFillColor=default;rotatable=0;resizeParent=1;resizeLast=0;resizeParentMax=0;marginBottom=10;marginTop=10;marginRight=10;marginLeft=10;spacingLeft=5;spacingRight=5;fontStyle=0;startSize=0;points=[];html=1;shadow=1;perimeterSpacing=3;spacingLeft=10;fontSize=14;horizontalStack=1;" parent="1" vertex="1">
            <mxGeometry x="1160" y="720" width="340" height="50" as="geometry" />
          </mxCell>
        </UserObject>
        <UserObject label="&amp;lt;ImageIdentifier&amp;gt;" id="5AiCtx2zGRSxKoqrEHmG-77">
          <mxCell style="points=[];html=1;shadow=1;perimeterSpacing=3;spacingLeft=10;fontSize=14;horizontal=1;" parent="5AiCtx2zGRSxKoqrEHmG-76" vertex="1">
            <mxGeometry x="10" y="10" width="160" height="30" as="geometry" />
          </mxCell>
        </UserObject>
        <UserObject label="&amp;lt;Reportdentifier&amp;gt;" id="5AiCtx2zGRSxKoqrEHmG-78">
          <mxCell style="points=[];html=1;shadow=1;perimeterSpacing=3;spacingLeft=10;fontSize=14;" parent="5AiCtx2zGRSxKoqrEHmG-76" vertex="1">
            <mxGeometry x="170" y="10" width="160" height="30" as="geometry" />
          </mxCell>
        </UserObject>
        <UserObject label="iof:hasOutput" id="5AiCtx2zGRSxKoqrEHmG-82">
          <mxCell style="html=1;edgeStyle=elbowEdgeStyle;rounded=0;orthogonalLoop=1;jettySize=auto;endArrow=block;endFill=1;endSize=5;spacingBottom=20;shadow=1;fontSize=14;" parent="1" source="5AiCtx2zGRSxKoqrEHmG-30" target="5AiCtx2zGRSxKoqrEHmG-77" edge="1">
            <mxGeometry x="0.119" relative="1" as="geometry">
              <mxPoint x="1130" y="750" as="sourcePoint" />
              <mxPoint x="1244" y="750" as="targetPoint" />
              <mxPoint as="offset" />
            </mxGeometry>
          </mxCell>
        </UserObject>
        <UserObject label="iof:hasOutput" id="5AiCtx2zGRSxKoqrEHmG-83">
          <mxCell style="html=1;edgeStyle=elbowEdgeStyle;rounded=0;orthogonalLoop=1;jettySize=auto;endArrow=block;endFill=1;endSize=5;spacingBottom=20;shadow=1;fontSize=14;" parent="1" source="5AiCtx2zGRSxKoqrEHmG-29" target="5AiCtx2zGRSxKoqrEHmG-78" edge="1">
            <mxGeometry x="-0.119" y="2" relative="1" as="geometry">
              <mxPoint x="1110" y="653" as="sourcePoint" />
              <mxPoint x="1110" y="837" as="targetPoint" />
              <mxPoint as="offset" />
            </mxGeometry>
          </mxCell>
        </UserObject>
        <UserObject label="iof:hasOutput" id="5AiCtx2zGRSxKoqrEHmG-84">
          <mxCell style="html=1;edgeStyle=elbowEdgeStyle;rounded=0;orthogonalLoop=1;jettySize=auto;endArrow=block;endFill=1;endSize=5;spacingBottom=20;shadow=1;fontSize=14;" parent="1" source="5AiCtx2zGRSxKoqrEHmG-32" target="5AiCtx2zGRSxKoqrEHmG-78" edge="1">
            <mxGeometry x="0.5952" y="2" relative="1" as="geometry">
              <mxPoint x="1120" y="663" as="sourcePoint" />
              <mxPoint x="1120" y="847" as="targetPoint" />
              <mxPoint as="offset" />
            </mxGeometry>
          </mxCell>
        </UserObject>
        <UserObject label="iof:Identifier" id="5AiCtx2zGRSxKoqrEHmG-85">
          <mxCell style="points=[];html=1;shadow=1;perimeterSpacing=3;spacingLeft=10;fontSize=14;" parent="1" vertex="1">
            <mxGeometry x="1160" y="840" width="120" height="30" as="geometry" />
          </mxCell>
        </UserObject>
        <UserObject label="a" id="5AiCtx2zGRSxKoqrEHmG-86">
          <mxCell style="html=1;edgeStyle=elbowEdgeStyle;rounded=0;orthogonalLoop=1;jettySize=auto;endArrow=block;endFill=1;endSize=5;spacingBottom=20;shadow=1;fontSize=14;" parent="1" source="5AiCtx2zGRSxKoqrEHmG-76" target="5AiCtx2zGRSxKoqrEHmG-85" edge="1">
            <mxGeometry x="-0.119" y="2" relative="1" as="geometry">
              <mxPoint x="1378" y="653" as="sourcePoint" />
              <mxPoint x="1378" y="737" as="targetPoint" />
              <mxPoint as="offset" />
            </mxGeometry>
          </mxCell>
        </UserObject>
        <UserObject label="iof:prescribes" id="5AiCtx2zGRSxKoqrEHmG-87">
          <mxCell style="html=1;edgeStyle=elbowEdgeStyle;rounded=0;orthogonalLoop=1;jettySize=auto;endArrow=block;endFill=1;endSize=5;spacingBottom=20;shadow=1;fontSize=14;" parent="1" source="5AiCtx2zGRSxKoqrEHmG-67" target="5AiCtx2zGRSxKoqrEHmG-60" edge="1">
            <mxGeometry relative="1" as="geometry">
              <mxPoint x="650" y="737" as="sourcePoint" />
              <mxPoint x="510" y="690" as="targetPoint" />
              <Array as="points">
                <mxPoint x="120" y="690" />
              </Array>
            </mxGeometry>
          </mxCell>
        </UserObject>
        <UserObject label="&amp;lt;Project&amp;gt;" id="5AiCtx2zGRSxKoqrEHmG-99">
          <mxCell style="swimlane;whiteSpace=wrap;collapsible=1;childLayout=stackLayout;swimlaneFillColor=default;rotatable=0;resizeParent=1;resizeLast=0;resizeParentMax=0;marginBottom=10;marginTop=10;marginRight=10;marginLeft=10;spacingLeft=5;spacingRight=5;fontStyle=0;startSize=30;points=[];html=1;shadow=1;perimeterSpacing=3;spacingLeft=10;fontSize=14;horizontal=1;horizontalStack=0;fillColor=#f5f5f5;fontColor=#333333;strokeColor=#666666;" parent="1" vertex="1">
            <mxGeometry x="520" y="-400" width="240" height="160" as="geometry" />
          </mxCell>
        </UserObject>
        <UserObject label="a iof:PlannedProcess" id="5AiCtx2zGRSxKoqrEHmG-100">
          <mxCell style="points=[];html=1;shadow=1;perimeterSpacing=3;spacingLeft=10;fontSize=14;" parent="5AiCtx2zGRSxKoqrEHmG-99" vertex="1">
            <mxGeometry x="10" y="40" width="220" height="30" as="geometry" />
          </mxCell>
        </UserObject>
        <UserObject label="iof:designatedBy" id="5AiCtx2zGRSxKoqrEHmG-102">
          <mxCell style="swimlane;whiteSpace=wrap;collapsible=1;childLayout=stackLayout;swimlaneFillColor=default;rotatable=0;resizeParent=1;resizeLast=0;resizeParentMax=0;marginBottom=10;marginTop=10;marginRight=10;marginLeft=10;spacingLeft=5;spacingRight=5;fontStyle=0;startSize=30;points=[];html=1;shadow=1;perimeterSpacing=3;spacingLeft=10;fontSize=14;horizontal=1;horizontalStack=0;" parent="5AiCtx2zGRSxKoqrEHmG-99" vertex="1">
            <mxGeometry x="10" y="70" width="220" height="80" as="geometry" />
          </mxCell>
        </UserObject>
        <UserObject label="&amp;lt;ProjectID&amp;gt;" id="5AiCtx2zGRSxKoqrEHmG-111">
          <mxCell style="swimlane;whiteSpace=wrap;collapsible=1;childLayout=stackLayout;swimlaneFillColor=default;rotatable=0;resizeParent=1;resizeLast=0;resizeParentMax=0;marginBottom=10;marginTop=10;marginRight=10;marginLeft=10;spacingLeft=5;spacingRight=5;fontStyle=0;startSize=30;points=[];html=1;shadow=1;perimeterSpacing=3;spacingLeft=10;fontSize=14;horizontal=1;horizontalStack=0;fillColor=#f5f5f5;fontColor=#333333;strokeColor=#666666;" parent="5AiCtx2zGRSxKoqrEHmG-102" vertex="1" collapsed="1">
            <mxGeometry x="10" y="40" width="200" height="30" as="geometry">
              <mxRectangle x="10" y="40" width="200" height="80" as="alternateBounds" />
            </mxGeometry>
          </mxCell>
        </UserObject>
        <UserObject label="a iof:Identifier" id="5AiCtx2zGRSxKoqrEHmG-112">
          <mxCell style="points=[];html=1;shadow=1;perimeterSpacing=3;spacingLeft=10;fontSize=14;" parent="5AiCtx2zGRSxKoqrEHmG-111" vertex="1">
            <mxGeometry x="10" y="40" width="180" height="30" as="geometry" />
          </mxCell>
        </UserObject>
        <UserObject label="mutil:has_occurrent_part" id="5AiCtx2zGRSxKoqrEHmG-101">
          <mxCell style="html=1;edgeStyle=elbowEdgeStyle;rounded=0;orthogonalLoop=1;jettySize=auto;endArrow=block;endFill=1;endSize=5;spacingBottom=20;shadow=1;fontSize=14;" parent="1" source="5AiCtx2zGRSxKoqrEHmG-99" target="5AiCtx2zGRSxKoqrEHmG-24" edge="1">
            <mxGeometry relative="1" as="geometry">
              <mxPoint x="410" y="200" as="sourcePoint" />
              <mxPoint x="524" y="200" as="targetPoint" />
            </mxGeometry>
          </mxCell>
        </UserObject>
        <UserObject label="&amp;lt;TestPlan&amp;gt;" id="5AiCtx2zGRSxKoqrEHmG-109">
          <mxCell style="points=[];html=1;shadow=1;perimeterSpacing=3;spacingLeft=10;fontSize=14;" parent="1" vertex="1">
            <mxGeometry x="860" y="840" width="200" height="30" as="geometry" />
          </mxCell>
        </UserObject>
        <UserObject label="mutil:has_continuant_part_at_all_times" id="5AiCtx2zGRSxKoqrEHmG-113">
          <mxCell style="html=1;edgeStyle=elbowEdgeStyle;rounded=0;orthogonalLoop=1;jettySize=auto;endArrow=block;endFill=1;endSize=5;spacingBottom=20;shadow=1;fontSize=14;" parent="1" source="5AiCtx2zGRSxKoqrEHmG-109" target="5AiCtx2zGRSxKoqrEHmG-72" edge="1">
            <mxGeometry relative="1" as="geometry">
              <mxPoint x="920" y="850" as="sourcePoint" />
              <mxPoint x="1034" y="850" as="targetPoint" />
            </mxGeometry>
          </mxCell>
        </UserObject>
        <UserObject label="&amp;lt;Microscope&amp;gt;" id="5AiCtx2zGRSxKoqrEHmG-114">
          <mxCell style="swimlane;whiteSpace=wrap;collapsible=1;childLayout=stackLayout;swimlaneFillColor=default;rotatable=0;resizeParent=1;resizeLast=0;resizeParentMax=0;marginBottom=10;marginTop=10;marginRight=10;marginLeft=10;spacingLeft=5;spacingRight=5;fontStyle=0;startSize=30;points=[];html=1;shadow=1;perimeterSpacing=3;spacingLeft=10;fontSize=14;horizontal=1;horizontalStack=0;fillColor=#f5f5f5;fontColor=#333333;strokeColor=#666666;" parent="1" vertex="1">
            <mxGeometry x="1080" y="-55" width="280" height="190" as="geometry" />
          </mxCell>
        </UserObject>
        <UserObject label="a iof:PieceOfEquipment" id="5AiCtx2zGRSxKoqrEHmG-115">
          <mxCell style="points=[];html=1;shadow=1;perimeterSpacing=3;spacingLeft=10;fontSize=14;" parent="5AiCtx2zGRSxKoqrEHmG-114" vertex="1">
            <mxGeometry x="10" y="40" width="260" height="30" as="geometry" />
          </mxCell>
        </UserObject>
        <UserObject label="mutil:has_continuant_part_at_all_times" id="5AiCtx2zGRSxKoqrEHmG-116">
          <mxCell style="swimlane;whiteSpace=wrap;collapsible=1;childLayout=stackLayout;swimlaneFillColor=default;rotatable=0;resizeParent=1;resizeLast=0;resizeParentMax=0;marginBottom=10;marginTop=10;marginRight=10;marginLeft=10;spacingLeft=5;spacingRight=5;fontStyle=0;startSize=30;points=[];html=1;shadow=1;perimeterSpacing=3;spacingLeft=10;fontSize=14;horizontal=1;horizontalStack=0;" parent="5AiCtx2zGRSxKoqrEHmG-114" vertex="1" collapsed="1">
            <mxGeometry x="10" y="70" width="260" height="30" as="geometry">
              <mxRectangle x="10" y="70" width="340" height="80" as="alternateBounds" />
            </mxGeometry>
          </mxCell>
        </UserObject>
        <UserObject label="&amp;lt;MicroscopeCamera&amp;gt;" id="5AiCtx2zGRSxKoqrEHmG-117">
          <mxCell style="points=[];html=1;shadow=1;perimeterSpacing=3;spacingLeft=10;fontSize=14;" parent="5AiCtx2zGRSxKoqrEHmG-116" vertex="1">
            <mxGeometry x="10" y="40" width="320" height="30" as="geometry" />
          </mxCell>
        </UserObject>
        <UserObject label="iof:designatedBy" id="5AiCtx2zGRSxKoqrEHmG-118">
          <mxCell style="swimlane;whiteSpace=wrap;collapsible=1;childLayout=stackLayout;swimlaneFillColor=default;rotatable=0;resizeParent=1;resizeLast=0;resizeParentMax=0;marginBottom=10;marginTop=10;marginRight=10;marginLeft=10;spacingLeft=5;spacingRight=5;fontStyle=0;startSize=30;points=[];html=1;shadow=1;perimeterSpacing=3;spacingLeft=10;fontSize=14;horizontal=1;horizontalStack=0;labelPadding=0;" parent="5AiCtx2zGRSxKoqrEHmG-114" vertex="1">
            <mxGeometry x="10" y="100" width="260" height="80" as="geometry" />
          </mxCell>
        </UserObject>
        <UserObject label="&amp;lt;MicroscopeIdentifer&amp;gt;" id="5AiCtx2zGRSxKoqrEHmG-121">
          <mxCell style="swimlane;whiteSpace=wrap;collapsible=1;childLayout=stackLayout;swimlaneFillColor=default;rotatable=0;resizeParent=1;resizeLast=0;resizeParentMax=0;marginBottom=10;marginTop=10;marginRight=10;marginLeft=10;spacingLeft=5;spacingRight=5;fontStyle=0;startSize=30;points=[];html=1;shadow=1;perimeterSpacing=3;spacingLeft=10;fontSize=14;horizontal=1;horizontalStack=0;fillColor=#f5f5f5;fontColor=#333333;strokeColor=#666666;" parent="5AiCtx2zGRSxKoqrEHmG-118" vertex="1" collapsed="1">
            <mxGeometry x="10" y="40" width="240" height="30" as="geometry">
              <mxRectangle x="10" y="40" width="240" height="80" as="alternateBounds" />
            </mxGeometry>
          </mxCell>
        </UserObject>
        <UserObject label="a iof:DesignativeInformationContentEntity" id="5AiCtx2zGRSxKoqrEHmG-122">
          <mxCell style="points=[];html=1;shadow=1;perimeterSpacing=3;spacingLeft=10;fontSize=14;whiteSpace=wrap;spacing=0;overflow=visible;" parent="5AiCtx2zGRSxKoqrEHmG-121" vertex="1">
            <mxGeometry x="10" y="40" width="220" height="30" as="geometry" />
          </mxCell>
        </UserObject>
        <UserObject label="&amp;lt;MicroscopeCamera&amp;gt;" id="5AiCtx2zGRSxKoqrEHmG-123">
          <mxCell style="swimlane;whiteSpace=wrap;collapsible=1;childLayout=stackLayout;swimlaneFillColor=default;rotatable=0;resizeParent=1;resizeLast=0;resizeParentMax=0;marginBottom=10;marginTop=10;marginRight=10;marginLeft=10;spacingLeft=5;spacingRight=5;fontStyle=0;startSize=30;points=[];html=1;shadow=1;perimeterSpacing=3;spacingLeft=10;fontSize=14;horizontal=1;horizontalStack=0;fillColor=#f5f5f5;fontColor=#333333;strokeColor=#666666;" parent="1" vertex="1">
            <mxGeometry x="1080" y="240" width="280" height="240" as="geometry" />
          </mxCell>
        </UserObject>
        <UserObject label="a iof:PieceOfEquipment" id="5AiCtx2zGRSxKoqrEHmG-137">
          <mxCell style="points=[];html=1;shadow=1;perimeterSpacing=3;spacingLeft=10;fontSize=14;" parent="5AiCtx2zGRSxKoqrEHmG-123" vertex="1">
            <mxGeometry x="10" y="40" width="260" height="30" as="geometry" />
          </mxCell>
        </UserObject>
        <UserObject label="iof:designatedBy" id="5AiCtx2zGRSxKoqrEHmG-125">
          <mxCell style="swimlane;whiteSpace=wrap;collapsible=1;childLayout=stackLayout;swimlaneFillColor=default;rotatable=0;resizeParent=1;resizeLast=0;resizeParentMax=0;marginBottom=10;marginTop=10;marginRight=10;marginLeft=10;spacingLeft=5;spacingRight=5;fontStyle=0;startSize=30;points=[];html=1;shadow=1;perimeterSpacing=3;spacingLeft=10;fontSize=14;horizontal=1;horizontalStack=0;" parent="5AiCtx2zGRSxKoqrEHmG-123" vertex="1">
            <mxGeometry x="10" y="70" width="260" height="80" as="geometry" />
          </mxCell>
        </UserObject>
        <UserObject label="&amp;lt;CameraIdentifer&amp;gt;" id="5AiCtx2zGRSxKoqrEHmG-127">
          <mxCell style="swimlane;whiteSpace=wrap;collapsible=1;childLayout=stackLayout;swimlaneFillColor=default;rotatable=0;resizeParent=1;resizeLast=0;resizeParentMax=0;marginBottom=10;marginTop=10;marginRight=10;marginLeft=10;spacingLeft=5;spacingRight=5;fontStyle=0;startSize=30;points=[];html=1;shadow=1;perimeterSpacing=3;spacingLeft=10;fontSize=14;horizontal=1;horizontalStack=0;fillColor=#f5f5f5;fontColor=#333333;strokeColor=#666666;" parent="5AiCtx2zGRSxKoqrEHmG-125" vertex="1" collapsed="1">
            <mxGeometry x="10" y="40" width="240" height="30" as="geometry">
              <mxRectangle x="10" y="40" width="200" height="80" as="alternateBounds" />
            </mxGeometry>
          </mxCell>
        </UserObject>
        <UserObject label="a iof:DesignativeInformationContentEntity" id="5AiCtx2zGRSxKoqrEHmG-128">
          <mxCell style="points=[];html=1;shadow=1;perimeterSpacing=3;spacingLeft=10;fontSize=14;" parent="5AiCtx2zGRSxKoqrEHmG-127" vertex="1">
            <mxGeometry x="10" y="40" width="180" height="30" as="geometry" />
          </mxCell>
        </UserObject>
        <UserObject label="iof:hasCapability" id="5AiCtx2zGRSxKoqrEHmG-133">
          <mxCell style="swimlane;whiteSpace=wrap;collapsible=1;childLayout=stackLayout;swimlaneFillColor=default;rotatable=0;resizeParent=1;resizeLast=0;resizeParentMax=0;marginBottom=10;marginTop=10;marginRight=10;marginLeft=10;spacingLeft=5;spacingRight=5;fontStyle=0;startSize=30;points=[];html=1;shadow=1;perimeterSpacing=3;spacingLeft=10;fontSize=14;horizontal=1;horizontalStack=0;" parent="5AiCtx2zGRSxKoqrEHmG-123" vertex="1">
            <mxGeometry x="10" y="150" width="260" height="80" as="geometry" />
          </mxCell>
        </UserObject>
        <UserObject label="&amp;lt;ImagingCapability&amp;gt;" id="5AiCtx2zGRSxKoqrEHmG-134">
          <mxCell style="swimlane;whiteSpace=wrap;collapsible=1;childLayout=stackLayout;swimlaneFillColor=default;rotatable=0;resizeParent=1;resizeLast=0;resizeParentMax=0;marginBottom=10;marginTop=10;marginRight=10;marginLeft=10;spacingLeft=5;spacingRight=5;fontStyle=0;startSize=30;points=[];html=1;shadow=1;perimeterSpacing=3;spacingLeft=10;fontSize=14;horizontal=1;horizontalStack=0;fillColor=#f5f5f5;fontColor=#333333;strokeColor=#666666;" parent="5AiCtx2zGRSxKoqrEHmG-133" vertex="1" collapsed="1">
            <mxGeometry x="10" y="40" width="240" height="30" as="geometry">
              <mxRectangle x="10" y="40" width="200" height="80" as="alternateBounds" />
            </mxGeometry>
          </mxCell>
        </UserObject>
        <UserObject label="a iof:MeasurementCapaility" id="5AiCtx2zGRSxKoqrEHmG-135">
          <mxCell style="points=[];html=1;shadow=1;perimeterSpacing=3;spacingLeft=10;fontSize=14;" parent="5AiCtx2zGRSxKoqrEHmG-134" vertex="1">
            <mxGeometry x="10" y="40" width="180" height="30" as="geometry" />
          </mxCell>
        </UserObject>
        <UserObject label="mutil:has_continuant_part_at_all_times" id="5AiCtx2zGRSxKoqrEHmG-136">
          <mxCell style="html=1;edgeStyle=elbowEdgeStyle;rounded=0;orthogonalLoop=1;jettySize=auto;endArrow=block;endFill=1;endSize=5;spacingBottom=20;shadow=1;fontSize=14;" parent="1" source="5AiCtx2zGRSxKoqrEHmG-114" target="5AiCtx2zGRSxKoqrEHmG-123" edge="1">
            <mxGeometry relative="1" as="geometry">
              <mxPoint x="1120" y="-150" as="sourcePoint" />
              <mxPoint x="1234" y="-150" as="targetPoint" />
            </mxGeometry>
          </mxCell>
        </UserObject>
        <UserObject label="mutil:participates_in_at_some_time" id="5AiCtx2zGRSxKoqrEHmG-138">
          <mxCell style="html=1;edgeStyle=elbowEdgeStyle;rounded=0;orthogonalLoop=1;jettySize=auto;endArrow=block;endFill=1;endSize=5;spacingBottom=20;shadow=1;fontSize=14;" parent="1" source="5AiCtx2zGRSxKoqrEHmG-24" target="5AiCtx2zGRSxKoqrEHmG-114" edge="1">
            <mxGeometry relative="1" as="geometry">
              <mxPoint x="920" y="380" as="sourcePoint" />
              <mxPoint x="1034" y="380" as="targetPoint" />
            </mxGeometry>
          </mxCell>
        </UserObject>
        <UserObject label="&amp;lt;TestPlanName&amp;gt;" id="5AiCtx2zGRSxKoqrEHmG-147">
          <mxCell style="swimlane;whiteSpace=wrap;collapsible=1;childLayout=stackLayout;swimlaneFillColor=default;rotatable=0;resizeParent=1;resizeLast=0;resizeParentMax=0;marginBottom=10;marginTop=10;marginRight=10;marginLeft=10;spacingLeft=5;spacingRight=5;fontStyle=0;startSize=30;points=[];html=1;shadow=1;perimeterSpacing=3;spacingLeft=10;fontSize=14;horizontal=1;horizontalStack=0;fillColor=#f5f5f5;fontColor=#333333;strokeColor=#666666;" parent="1" vertex="1">
            <mxGeometry y="125" width="320" height="80" as="geometry">
              <mxRectangle x="520" y="275" width="220" height="30" as="alternateBounds" />
            </mxGeometry>
          </mxCell>
        </UserObject>
        <UserObject label="a iof:DesignativeInformationContentEntity" id="5AiCtx2zGRSxKoqrEHmG-148">
          <mxCell style="points=[];html=1;shadow=1;perimeterSpacing=3;spacingLeft=10;fontSize=14;" parent="5AiCtx2zGRSxKoqrEHmG-147" vertex="1">
            <mxGeometry x="10" y="40" width="300" height="30" as="geometry" />
          </mxCell>
        </UserObject>
        <UserObject label="iof:designatedBy" id="5AiCtx2zGRSxKoqrEHmG-149">
          <mxCell style="html=1;edgeStyle=elbowEdgeStyle;rounded=0;orthogonalLoop=1;jettySize=auto;endArrow=block;endFill=1;endSize=5;spacingBottom=20;shadow=1;fontSize=14;" parent="1" source="5AiCtx2zGRSxKoqrEHmG-92" target="5AiCtx2zGRSxKoqrEHmG-147" edge="1">
            <mxGeometry relative="1" as="geometry">
              <mxPoint x="860" y="300" as="sourcePoint" />
              <mxPoint x="974" y="300" as="targetPoint" />
            </mxGeometry>
          </mxCell>
        </UserObject>
        <UserObject label="&amp;lt;OperatorID&amp;gt;" id="5AiCtx2zGRSxKoqrEHmG-150">
          <mxCell style="swimlane;whiteSpace=wrap;collapsible=1;childLayout=stackLayout;swimlaneFillColor=default;rotatable=0;resizeParent=1;resizeLast=0;resizeParentMax=0;marginBottom=10;marginTop=10;marginRight=10;marginLeft=10;spacingLeft=5;spacingRight=5;fontStyle=0;startSize=30;points=[];html=1;shadow=1;perimeterSpacing=3;spacingLeft=10;fontSize=14;horizontal=1;horizontalStack=0;fillColor=#f5f5f5;fontColor=#333333;strokeColor=#666666;" parent="1" vertex="1">
            <mxGeometry y="-35" width="320" height="80" as="geometry" />
          </mxCell>
        </UserObject>
        <UserObject label="a iof:DesignativeInformationContentEntity" id="5AiCtx2zGRSxKoqrEHmG-151">
          <mxCell style="points=[];html=1;shadow=1;perimeterSpacing=3;spacingLeft=10;fontSize=14;" parent="5AiCtx2zGRSxKoqrEHmG-150" vertex="1">
            <mxGeometry x="10" y="40" width="300" height="30" as="geometry" />
          </mxCell>
        </UserObject>
        <UserObject label="iof:designatedBy" id="5AiCtx2zGRSxKoqrEHmG-152">
          <mxCell style="html=1;edgeStyle=elbowEdgeStyle;rounded=0;orthogonalLoop=1;jettySize=auto;endArrow=block;endFill=1;endSize=5;spacingBottom=20;shadow=1;fontSize=14;" parent="1" source="5AiCtx2zGRSxKoqrEHmG-89" target="5AiCtx2zGRSxKoqrEHmG-150" edge="1">
            <mxGeometry relative="1" as="geometry">
              <mxPoint x="870" y="-70" as="sourcePoint" />
              <mxPoint x="984" y="-70" as="targetPoint" />
            </mxGeometry>
          </mxCell>
        </UserObject>
      </root>
    </mxGraphModel>
  </diagram>
</mxfile>
