---
source: rdf-diagram-lib/src/diagram/formats/drawio.rs
expression: diagram
input_file: rdf-diagram-lib/tests/rdf-diagram/container.drawio
snapshot_kind: text
---
<mxfile host="Electron" modified="DATE PLACEHOLDER" agent="Mozilla/5.0 (X11; Linux x86_64) AppleWebKit/537.36 (KHTML, like Gecko) draw.io/23.0.2 Chrome/120.0.6099.109 Electron/28.1.0 Safari/537.36" version="23.0.2" etag="ETAG PLACEHOLDER">
    <diagram>
        <mxGraphModel>
            <root>
                <mxCell id="0"/>
                <mxCell id="1" parent="0"/>
                <UserObject id="Ye4daYKIe9hQemjYp49K-18" label="&amp;lt;s&amp;gt;">
                    <mxCell style="swimlane;collapsible=1;childLayout=stackLayout;swimlaneFillColor=default;resizeParent=1;resizeLast=0;resizeParentMax=0;marginBottom=10;marginTop=10;marginRight=10;marginLeft=10;spacingLeft=5;spacingRight=5;fontStyle=0;startSize=30;points=[];html=1;shadow=1;perimeterSpacing=3;spacingLeft=10;spacingRight=10;allowArrows=1;rotatable=0;overflow=hidden;whiteSpace=wrap;fontSize=14;horizontal=1;horizontalStack=0;" parent="1" vertex="1">
                        <mxGeometry x="40" y="120" width="80" height="120" as="geometry"/>
                    </mxCell>
                </UserObject>
                <UserObject id="jEDyRevMDi4NTqrfnDpC-5" label="&amp;lt;s1&amp;gt;">
                    <mxCell style="points=[];html=1;shadow=1;perimeterSpacing=3;spacingLeft=10;spacingRight=10;allowArrows=1;rotatable=0;overflow=hidden;whiteSpace=wrap;fontSize=14;" parent="1" vertex="1">
                        <mxGeometry x="40" y="295" width="80" height="30" as="geometry"/>
                    </mxCell>
                </UserObject>
                <UserObject id="jEDyRevMDi4NTqrfnDpC-2">
                    <mxCell style="swimlane;collapsible=1;childLayout=stackLayout;swimlaneFillColor=default;resizeParent=1;resizeLast=0;resizeParentMax=0;marginBottom=10;marginTop=10;marginRight=10;marginLeft=10;spacingLeft=5;spacingRight=5;fontStyle=0;startSize=0;points=[];html=1;shadow=1;perimeterSpacing=3;spacingLeft=10;spacingRight=10;allowArrows=1;rotatable=0;overflow=hidden;whiteSpace=wrap;fontSize=14;horizontalStack=0;" parent="1" vertex="1">
                        <mxGeometry x="200" y="280" width="140" height="60" as="geometry"/>
                    </mxCell>
                </UserObject>
                <UserObject id="jEDyRevMDi4NTqrfnDpC-10" label="@base &amp;lt;http://base.org#&amp;gt; .">
                    <mxCell style="points=[];html=1;shadow=1;perimeterSpacing=3;spacingLeft=10;spacingRight=10;allowArrows=1;rotatable=0;overflow=hidden;whiteSpace=wrap;fontSize=14;" parent="1" vertex="1">
                        <mxGeometry x="40" y="40" width="160" height="30" as="geometry"/>
                    </mxCell>
                </UserObject>
                <UserObject id="Ye4daYKIe9hQemjYp49K-22" label="&amp;lt;p&amp;gt; &amp;lt;o&amp;gt;">
                    <mxCell style="points=[];html=1;shadow=1;perimeterSpacing=3;spacingLeft=10;spacingRight=10;allowArrows=1;rotatable=0;overflow=hidden;whiteSpace=wrap;fontSize=14;" parent="Ye4daYKIe9hQemjYp49K-18" vertex="1">
                        <mxGeometry y="30" width="80" height="30" as="geometry"/>
                    </mxCell>
                </UserObject>
                <UserObject id="jEDyRevMDi4NTqrfnDpC-7" label="&amp;lt;p2&amp;gt;">
                    <mxCell style="swimlane;collapsible=1;childLayout=stackLayout;swimlaneFillColor=default;resizeParent=1;resizeLast=0;resizeParentMax=0;marginBottom=10;marginTop=10;marginRight=10;marginLeft=10;spacingLeft=5;spacingRight=5;fontStyle=0;startSize=30;points=[];html=1;shadow=1;perimeterSpacing=3;spacingLeft=10;spacingRight=10;allowArrows=1;rotatable=0;overflow=hidden;whiteSpace=wrap;fontSize=14;horizontal=0;horizontalStack=0;" parent="Ye4daYKIe9hQemjYp49K-18" vertex="1">
                        <mxGeometry y="60" width="80" height="60" as="geometry"/>
                    </mxCell>
                </UserObject>
                <UserObject id="jEDyRevMDi4NTqrfnDpC-8" label="&amp;lt;o3&amp;gt;">
                    <mxCell style="points=[];html=1;shadow=1;perimeterSpacing=3;spacingLeft=10;spacingRight=10;allowArrows=1;rotatable=0;overflow=hidden;whiteSpace=wrap;fontSize=14;" parent="jEDyRevMDi4NTqrfnDpC-7" vertex="1">
                        <mxGeometry x="30" width="50" height="30" as="geometry"/>
                    </mxCell>
                </UserObject>
                <UserObject id="jEDyRevMDi4NTqrfnDpC-9" label="&amp;lt;o4&amp;gt;">
                    <mxCell style="points=[];html=1;shadow=1;perimeterSpacing=3;spacingLeft=10;spacingRight=10;allowArrows=1;rotatable=0;overflow=hidden;whiteSpace=wrap;fontSize=14;" parent="jEDyRevMDi4NTqrfnDpC-7" vertex="1">
                        <mxGeometry x="30" y="30" width="50" height="30" as="geometry"/>
                    </mxCell>
                </UserObject>
                <UserObject id="jEDyRevMDi4NTqrfnDpC-3" label="&amp;lt;o1&amp;gt;">
                    <mxCell style="points=[];html=1;shadow=1;perimeterSpacing=3;spacingLeft=10;spacingRight=10;allowArrows=1;rotatable=0;overflow=hidden;whiteSpace=wrap;fontSize=14;" parent="jEDyRevMDi4NTqrfnDpC-2" vertex="1">
                        <mxGeometry width="140" height="30" as="geometry"/>
                    </mxCell>
                </UserObject>
                <UserObject id="jEDyRevMDi4NTqrfnDpC-4" label="&amp;lt;o2&amp;gt;">
                    <mxCell style="points=[];html=1;shadow=1;perimeterSpacing=3;spacingLeft=10;spacingRight=10;allowArrows=1;rotatable=0;overflow=hidden;whiteSpace=wrap;fontSize=14;" parent="jEDyRevMDi4NTqrfnDpC-2" vertex="1">
                        <mxGeometry y="30" width="140" height="30" as="geometry"/>
                    </mxCell>
                </UserObject>
                <UserObject id="jEDyRevMDi4NTqrfnDpC-6" label="&amp;lt;p1&amp;gt;">
                    <mxCell style="html=1;edgeStyle=elbowEdgeStyle;rounded=0;orthogonalLoop=1;jettySize=auto;endArrow=block;endFill=1;endSize=5;spacingBottom=20;shadow=1;fontSize=14;labelBackgroundColor=none;" parent="1" source="jEDyRevMDi4NTqrfnDpC-5" target="jEDyRevMDi4NTqrfnDpC-2" edge="1">
                        <mxGeometry as="geometry" relative="1"/>
                    </mxCell>
                </UserObject>
            </root>
        </mxGraphModel>
    </diagram>
</mxfile>
