---
source: rdf-diagram-lib/src/diagram/formats/drawio.rs
expression: diagram
input_file: rdf-diagram-lib/tests/diagram/layout.drawio
snapshot_kind: text
---
<mxfile host="Electron" modified="DATE PLACEHOLDER" agent="Mozilla/5.0 (X11; Linux x86_64) AppleWebKit/537.36 (KHTML, like Gecko) draw.io/23.0.2 Chrome/120.0.6099.109 Electron/28.1.0 Safari/537.36" version="23.0.2" etag="ETAG PLACEHOLDER">
    <diagram>
        <mxGraphModel>
            <root>
                <mxCell id="0"/>
                <mxCell id="1" parent="0"/>
                <UserObject id="YXXOVJOcMPqVfFgXNsJw-13" label="Collapsed Container">
                    <mxCell style="swimlane;collapsible=1;childLayout=stackLayout;swimlaneFillColor=default;resizeParent=1;resizeLast=0;resizeParentMax=0;marginBottom=10;marginTop=10;marginRight=10;marginLeft=10;spacingLeft=5;spacingRight=5;fontStyle=0;startSize=30;points=[];html=1;shadow=1;perimeterSpacing=3;spacingLeft=10;spacingRight=10;allowArrows=1;rotatable=0;overflow=hidden;whiteSpace=wrap;fontSize=14;horizontal=1;horizontalStack=0;" parent="1" vertex="1">
                        <mxGeometry x="590" width="200" height="30" as="geometry"/>
                    </mxCell>
                </UserObject>
                <UserObject id="YXXOVJOcMPqVfFgXNsJw-14" label="Node">
                    <mxCell style="points=[];html=1;shadow=1;perimeterSpacing=3;spacingLeft=10;spacingRight=10;allowArrows=1;rotatable=0;overflow=hidden;whiteSpace=wrap;fontSize=14;" parent="YXXOVJOcMPqVfFgXNsJw-13" vertex="1">
                        <mxGeometry x="10" y="40" width="140" height="30" as="geometry"/>
                    </mxCell>
                </UserObject>
                <UserObject id="YXXOVJOcMPqVfFgXNsJw-15" label="Node">
                    <mxCell style="points=[];html=1;shadow=1;perimeterSpacing=3;spacingLeft=10;spacingRight=10;allowArrows=1;rotatable=0;overflow=hidden;whiteSpace=wrap;fontSize=14;" parent="YXXOVJOcMPqVfFgXNsJw-13" vertex="1">
                        <mxGeometry x="10" y="70" width="140" height="30" as="geometry"/>
                    </mxCell>
                </UserObject>
                <UserObject id="YXXOVJOcMPqVfFgXNsJw-17" label="Container">
                    <mxCell style="swimlane;collapsible=1;childLayout=stackLayout;swimlaneFillColor=default;resizeParent=1;resizeLast=0;resizeParentMax=0;marginBottom=10;marginTop=10;marginRight=10;marginLeft=10;spacingLeft=5;spacingRight=5;fontStyle=0;startSize=30;points=[];html=1;shadow=1;perimeterSpacing=3;spacingLeft=10;spacingRight=10;allowArrows=1;rotatable=0;overflow=hidden;whiteSpace=wrap;fontSize=14;horizontal=0;horizontalStack=0;" parent="1" vertex="1">
                        <mxGeometry width="160" height="110" as="geometry"/>
                    </mxCell>
                </UserObject>
                <UserObject id="YXXOVJOcMPqVfFgXNsJw-18" label="Node">
                    <mxCell style="points=[];html=1;shadow=1;perimeterSpacing=3;spacingLeft=10;spacingRight=10;allowArrows=1;rotatable=0;overflow=hidden;whiteSpace=wrap;fontSize=14;" parent="YXXOVJOcMPqVfFgXNsJw-17" vertex="1">
                        <mxGeometry x="40" y="10" width="110" height="30" as="geometry"/>
                    </mxCell>
                </UserObject>
                <UserObject id="YXXOVJOcMPqVfFgXNsJw-19" label="Node">
                    <mxCell style="points=[];html=1;shadow=1;perimeterSpacing=3;spacingLeft=10;spacingRight=10;allowArrows=1;rotatable=0;overflow=hidden;whiteSpace=wrap;fontSize=14;" parent="YXXOVJOcMPqVfFgXNsJw-17" vertex="1">
                        <mxGeometry x="40" y="40" width="110" height="30" as="geometry"/>
                    </mxCell>
                </UserObject>
                <UserObject id="YXXOVJOcMPqVfFgXNsJw-20" label="Node">
                    <mxCell style="points=[];html=1;shadow=1;perimeterSpacing=3;spacingLeft=10;spacingRight=10;allowArrows=1;rotatable=0;overflow=hidden;whiteSpace=wrap;fontSize=14;" parent="YXXOVJOcMPqVfFgXNsJw-17" vertex="1">
                        <mxGeometry x="40" y="70" width="110" height="30" as="geometry"/>
                    </mxCell>
                </UserObject>
                <UserObject id="YXXOVJOcMPqVfFgXNsJw-21" label="Container">
                    <mxCell style="swimlane;collapsible=1;childLayout=stackLayout;swimlaneFillColor=default;resizeParent=1;resizeLast=0;resizeParentMax=0;marginBottom=10;marginTop=10;marginRight=10;marginLeft=10;spacingLeft=5;spacingRight=5;fontStyle=0;startSize=30;points=[];html=1;shadow=1;perimeterSpacing=3;spacingLeft=10;spacingRight=10;allowArrows=1;rotatable=0;overflow=hidden;whiteSpace=wrap;fontSize=14;horizontal=1;horizontalStack=1;" parent="1" vertex="1">
                        <mxGeometry x="200" width="350" height="80" as="geometry"/>
                    </mxCell>
                </UserObject>
                <UserObject id="YXXOVJOcMPqVfFgXNsJw-22" label="Node">
                    <mxCell style="points=[];html=1;shadow=1;perimeterSpacing=3;spacingLeft=10;spacingRight=10;allowArrows=1;rotatable=0;overflow=hidden;whiteSpace=wrap;fontSize=14;" parent="YXXOVJOcMPqVfFgXNsJw-21" vertex="1">
                        <mxGeometry x="10" y="40" width="110" height="30" as="geometry"/>
                    </mxCell>
                </UserObject>
                <UserObject id="YXXOVJOcMPqVfFgXNsJw-23" label="Node">
                    <mxCell style="points=[];html=1;shadow=1;perimeterSpacing=3;spacingLeft=10;spacingRight=10;allowArrows=1;rotatable=0;overflow=hidden;whiteSpace=wrap;fontSize=14;" parent="YXXOVJOcMPqVfFgXNsJw-21" vertex="1">
                        <mxGeometry x="120" y="40" width="110" height="30" as="geometry"/>
                    </mxCell>
                </UserObject>
                <UserObject id="YXXOVJOcMPqVfFgXNsJw-24" label="Node">
                    <mxCell style="points=[];html=1;shadow=1;perimeterSpacing=3;spacingLeft=10;spacingRight=10;allowArrows=1;rotatable=0;overflow=hidden;whiteSpace=wrap;fontSize=14;" parent="YXXOVJOcMPqVfFgXNsJw-21" vertex="1">
                        <mxGeometry x="230" y="40" width="110" height="30" as="geometry"/>
                    </mxCell>
                </UserObject>
            </root>
        </mxGraphModel>
    </diagram>
</mxfile>
