---
source: rdf-diagram-lib/src/diagram/formats/drawio.rs
expression: diagram
input_file: rdf-diagram-lib/tests/rdf-diagram/node-kinds.drawio
snapshot_kind: text
---
<mxfile host="Electron" modified="DATE PLACEHOLDER" agent="Mozilla/5.0 (X11; Linux x86_64) AppleWebKit/537.36 (KHTML, like Gecko) draw.io/23.0.2 Chrome/120.0.6099.109 Electron/28.1.0 Safari/537.36" version="23.0.2" etag="ETAG PLACEHOLDER">
    <diagram>
        <mxGraphModel>
            <root>
                <mxCell id="0"/>
                <mxCell id="1" parent="0"/>
                <UserObject id="element-0" label="@base &amp;lt;http://base.org#&amp;gt; .&lt;br&gt;@prefix p: &amp;lt;http://prefix.org#&amp;gt; .">
                    <mxCell style="points=[];html=1;shadow=1;perimeterSpacing=3;spacingLeft=10;spacingRight=10;allowArrows=1;rotatable=0;overflow=hidden;whiteSpace=wrap;fontSize=14;" parent="1" vertex="1">
                        <mxGeometry y="-100" width="200" height="30" as="geometry"/>
                    </mxCell>
                </UserObject>
                <UserObject id="element-3b" label="&amp;quot;A node can be a turtle term.&amp;quot;">
                    <mxCell style="points=[];html=1;shadow=1;perimeterSpacing=3;spacingLeft=10;spacingRight=10;allowArrows=1;rotatable=0;overflow=hidden;whiteSpace=wrap;fontSize=14;" parent="1" vertex="1">
                        <mxGeometry x="300" y="40" width="320" height="30" as="geometry"/>
                    </mxCell>
                </UserObject>
                <UserObject id="element-2" label="&amp;lt;s&amp;gt; &amp;lt;p&amp;gt; &amp;lt;o&amp;gt; . # A node can contain a turtle doc">
                    <mxCell style="points=[];html=1;shadow=1;perimeterSpacing=3;spacingLeft=10;spacingRight=10;allowArrows=1;rotatable=0;overflow=hidden;whiteSpace=wrap;fontSize=14;" parent="1" vertex="1">
                        <mxGeometry width="320" height="30" as="geometry"/>
                    </mxCell>
                </UserObject>
                <UserObject id="element-3a" label="&amp;lt;term&amp;gt;">
                    <mxCell style="points=[];html=1;shadow=1;perimeterSpacing=3;spacingLeft=10;spacingRight=10;allowArrows=1;rotatable=0;overflow=hidden;whiteSpace=wrap;fontSize=14;" parent="1" vertex="1">
                        <mxGeometry y="40" width="120" height="30" as="geometry"/>
                    </mxCell>
                </UserObject>
                <UserObject id="element-3c" label="&amp;quot;Different variants of blank nodes.&amp;quot;">
                    <mxCell style="points=[];html=1;shadow=1;perimeterSpacing=3;spacingLeft=10;spacingRight=10;allowArrows=1;rotatable=0;overflow=hidden;whiteSpace=wrap;fontSize=14;" parent="1" vertex="1">
                        <mxGeometry x="300" y="360" width="320" height="30" as="geometry"/>
                    </mxCell>
                </UserObject>
                <UserObject id="element-1">
                    <mxCell style="swimlane;collapsible=1;childLayout=stackLayout;swimlaneFillColor=default;resizeParent=1;resizeLast=0;resizeParentMax=0;marginBottom=10;marginTop=10;marginRight=10;marginLeft=10;spacingLeft=5;spacingRight=5;fontStyle=0;startSize=0;points=[];html=1;shadow=1;perimeterSpacing=3;spacingLeft=10;spacingRight=10;allowArrows=1;rotatable=0;overflow=hidden;whiteSpace=wrap;fontSize=14;horizontalStack=0;" parent="1" vertex="1">
                        <mxGeometry y="180" width="200" height="280" as="geometry"/>
                    </mxCell>
                </UserObject>
                <UserObject id="element-4d">
                    <mxCell style="points=[];html=1;shadow=1;perimeterSpacing=3;spacingLeft=10;spacingRight=10;allowArrows=1;rotatable=0;overflow=hidden;whiteSpace=wrap;fontSize=14;" parent="element-1a" vertex="1">
                        <mxGeometry x="10" y="10" width="160" height="30" as="geometry"/>
                    </mxCell>
                </UserObject>
                <UserObject id="element-4e" label="[]">
                    <mxCell style="points=[];html=1;shadow=1;perimeterSpacing=3;spacingLeft=10;spacingRight=10;allowArrows=1;rotatable=0;overflow=hidden;whiteSpace=wrap;fontSize=14;" parent="element-1a" vertex="1">
                        <mxGeometry x="10" y="40" width="160" height="30" as="geometry"/>
                    </mxCell>
                </UserObject>
                <UserObject id="element-4f" label="_:blank_node_label">
                    <mxCell style="points=[];html=1;shadow=1;perimeterSpacing=3;spacingLeft=10;spacingRight=10;allowArrows=1;rotatable=0;overflow=hidden;whiteSpace=wrap;fontSize=14;" parent="element-1a" vertex="1">
                        <mxGeometry x="10" y="70" width="160" height="30" as="geometry"/>
                    </mxCell>
                </UserObject>
                <UserObject id="element-4a" label="&amp;lt;relative_iri&amp;gt;">
                    <mxCell style="points=[];html=1;shadow=1;perimeterSpacing=3;spacingLeft=10;spacingRight=10;allowArrows=1;rotatable=0;overflow=hidden;whiteSpace=wrap;fontSize=14;" parent="element-1" vertex="1">
                        <mxGeometry x="10" y="10" width="180" height="30" as="geometry"/>
                    </mxCell>
                </UserObject>
                <UserObject id="element-4b" label="&amp;lt;http://absolute_iri&amp;gt;">
                    <mxCell style="points=[];html=1;shadow=1;perimeterSpacing=3;spacingLeft=10;spacingRight=10;allowArrows=1;rotatable=0;overflow=hidden;whiteSpace=wrap;fontSize=14;" parent="element-1" vertex="1">
                        <mxGeometry x="10" y="40" width="180" height="30" as="geometry"/>
                    </mxCell>
                </UserObject>
                <UserObject id="element-4c" label="p:prefixed_name">
                    <mxCell style="points=[];html=1;shadow=1;perimeterSpacing=3;spacingLeft=10;spacingRight=10;allowArrows=1;rotatable=0;overflow=hidden;whiteSpace=wrap;fontSize=14;" parent="element-1" vertex="1">
                        <mxGeometry x="10" y="70" width="180" height="30" as="geometry"/>
                    </mxCell>
                </UserObject>
                <UserObject id="element-1a">
                    <mxCell style="swimlane;collapsible=1;childLayout=stackLayout;swimlaneFillColor=default;resizeParent=1;resizeLast=0;resizeParentMax=0;marginBottom=10;marginTop=10;marginRight=10;marginLeft=10;spacingLeft=5;spacingRight=5;fontStyle=0;startSize=0;points=[];html=1;shadow=1;perimeterSpacing=3;spacingLeft=10;spacingRight=10;allowArrows=1;rotatable=0;overflow=hidden;whiteSpace=wrap;fontSize=14;horizontalStack=0;" parent="element-1" vertex="1">
                        <mxGeometry x="10" y="100" width="180" height="110" as="geometry"/>
                    </mxCell>
                </UserObject>
                <UserObject id="element-4g" label="4 # An integer">
                    <mxCell style="points=[];html=1;shadow=1;perimeterSpacing=3;spacingLeft=10;spacingRight=10;allowArrows=1;rotatable=0;overflow=hidden;whiteSpace=wrap;fontSize=14;" parent="element-1" vertex="1">
                        <mxGeometry x="10" y="210" width="180" height="30" as="geometry"/>
                    </mxCell>
                </UserObject>
                <UserObject id="element-4h" label="true # A bool">
                    <mxCell style="points=[];html=1;shadow=1;perimeterSpacing=3;spacingLeft=10;spacingRight=10;allowArrows=1;rotatable=0;overflow=hidden;whiteSpace=wrap;fontSize=14;" parent="element-1" vertex="1">
                        <mxGeometry x="10" y="240" width="180" height="30" as="geometry"/>
                    </mxCell>
                </UserObject>
                <UserObject id="3" label="&amp;lt;termKinds&amp;gt;">
                    <mxCell style="html=1;edgeStyle=elbowEdgeStyle;rounded=0;orthogonalLoop=1;jettySize=auto;endArrow=block;endFill=1;endSize=5;spacingBottom=20;shadow=1;fontSize=14;labelBackgroundColor=none;" parent="1" source="element-3a" target="element-1" edge="1">
                        <mxGeometry as="geometry" relative="1"/>
                    </mxCell>
                </UserObject>
                <UserObject id="2" label="&amp;lt;comment&amp;gt;">
                    <mxCell style="html=1;edgeStyle=elbowEdgeStyle;rounded=0;orthogonalLoop=1;jettySize=auto;endArrow=block;endFill=1;endSize=5;spacingBottom=20;shadow=1;fontSize=14;labelBackgroundColor=none;" parent="1" source="element-3a" target="element-3b" edge="1">
                        <mxGeometry as="geometry" relative="1"/>
                    </mxCell>
                </UserObject>
                <UserObject id="4" label="&amp;lt;comment&amp;gt;">
                    <mxCell style="html=1;edgeStyle=elbowEdgeStyle;rounded=0;orthogonalLoop=1;jettySize=auto;endArrow=block;endFill=1;endSize=5;spacingBottom=20;shadow=1;fontSize=14;labelBackgroundColor=none;" parent="1" source="element-1a" target="element-3c" edge="1">
                        <mxGeometry as="geometry" relative="1"/>
                    </mxCell>
                </UserObject>
            </root>
        </mxGraphModel>
    </diagram>
</mxfile>
